{
  "header": {
    "title": "Mechanical Engineering (394950) MAP Sheet",
    "department": "Department of Mechanical Engineering",
    "note": "For students entering the degree program during the 2015&mdash;2016 curricular year."
  },
  "headNotes": {
    "notes": {
      "markdown": "This is a limited-enrollment program requiring departmental admissions approval. &nbsp;Please see the college advisement center or department office for information regarding requirements for admission to this major."
    }
  },
  "firstPageFooter": {
    "footers": {
      "markdown": "FOR UNIVERSITY CORE QUESTIONS CONTACT THE ADVISEMENT CENTER &nbsp;&nbsp;&nbsp;&nbsp;&bull; &nbsp;&nbsp;&nbsp;&nbsp;FOR PROGRAM QUESTIONS SEE YOUR FACULTY ADVISOR\n\n    *THESE CLASSES FILL BOTH UNIVERSITY CORE AND PROGRAM REQUIREMENTS (16 &nbsp;hours overlap)\n\n    BS in MECHANICAL ENGINEERING (394950)\n\n    2015&mdash;2016"
    }
  },
  "secondPageNotes": {
    "notes": {
      "markdown": "**(continued from previous page)**\n\nAn option in manufacturing engineering is available. &nbsp;It may be completed by taking the following 12 hours of technical electives:\n\n**1\\. Complete 3 hours from the following:**\n\nMe En 585 Mfg Competitiveness: Qual &amp; Prod 3.0\n\nMfg 532 Manufacturing Systems 3.0\n\n**2\\. Complete 3 hours from the following:**\n\nMe En 482 Mfg. Systems Analysis &amp; Design 3.0\n\nMe En 486 Automation 3.0\n\nMe En 537 Advanced Mechanisms, Robotics 3.0\n\n3\\. **Complete 3 hours from the following:**\n\nMe En 452 Intermediate Materials 3.0\n\nMe En 456 Composite Material Design 3.0\n\nMe En 477 Design for Manufacture/Assembly 3.0\n\nMe En 558 Metallurgy 3.0\n\nMe En 584 Mfg Process Machine Design 3.0\n\n**4\\. Complete 3 additional hours from the manufacturing electives list.**\n\nWhen combined with required courses for all mechanical engineering majors related to manufacturing, namely Me En 250, 282, 475/476, and Stat 201, this option provides a strong foundation in manufacturing engineering."
    }
  },
  "suggestedSequence": {
    "title": "Suggested Sequence of Courses",
    "notes": { "markdown": "" },
    "years": [
      {
        "yearTitle": "FRESHMAN YEAR",
        "semesters": [
          {
            "title": "1st Semester",
            "suggestions": [
              { "text": "First-Year Writing or A Htg", "hours": 3 },
              { "text": "Bio 100", "hours": 3 },
              { "text": "Phscs 121 (FWSp)", "hours": 3 },
              { "text": "Math 112 &nbsp;(FWSpSu)", "hours": 4 },
              { "text": "Me En 191 &nbsp;(FW)", "hours": 0.5 },
              { "text": "Religion Cornerstone course", "hours": 2 }
            ],
            "hours": 15.5
          },
          {
            "title": "2nd Semester",
            "suggestions": [
              { "text": "Chem 105 (FWSpSu)", "hours": 4 },
              { "text": "Math 113 &nbsp;(FWSpSu)", "hours": 4 },
              { "text": "Me En 101 (FWSp)", "hours": 3 },
              { "text": "First-Year Writing or A Htg", "hours": 3 },
              { "text": "Religion Cornerstone course", "hours": 2 }
            ],
            "hours": 16
          }
        ]
      },
      {
        "yearTitle": "SOPHOMORE YEAR",
        "semesters": [
          {
            "title": "3rd Semester",
            "suggestions": [
              { "text": "CE En 203 &nbsp;(FWSp)", "hours": 3 },
              { "text": "CE En 204", "hours": 3 },
              { "text": "Eng T 231", "hours": 3 },
              { "text": "Phscs 123", "hours": 3 },
              { "text": "Math 302 &nbsp;(FWSp)", "hours": 4 },
              { "text": "Religion Cornerstone course", "hours": 2 }
            ],
            "hours": 18
          },
          {
            "title": "4th Semester",
            "suggestions": [
              { "text": "Ec En 301", "hours": 3 },
              { "text": "Me En 250", "hours": 3 },
              { "text": "Me En 272", "hours": 3 },
              { "text": "Me En 273", "hours": 3 },
              { "text": "Math 303 &nbsp;(FWSu)", "hours": 4 },
              { "text": "" }
            ],
            "hours": 16
          }
        ]
      },
      {
        "yearTitle": "JUNIOR YEAR",
        "semesters": [
          {
            "title": "5th Semester",
            "suggestions": [
              { "text": "Stat 201", "hours": 3 },
              { "text": "Me En 321", "hours": 3 },
              { "text": "Me En 330", "hours": 3 },
              { "text": "Me En 335", "hours": 3 },
              { "text": "Me En 382", "hours": 3 },
              { "text": "Religion Cornerstone course", "hours": 2 }
            ],
            "hours": 17
          },
          {
            "title": "6th Semester",
            "suggestions": [
              { "text": "Engl 316", "hours": 3 },
              { "text": "Me En 312", "hours": 3 },
              { "text": "Me En 362", "hours": 2 },
              { "text": "Me En 372", "hours": 3 },
              { "text": "Me En 393", "hours": 1 },
              { "text": "Letters GE", "hours": 3 },
              { "text": "Religion elective", "hours": 2 }
            ],
            "hours": 17
          }
        ]
      },
      {
        "yearTitle": "SENIOR YEAR",
        "semesters": [
          {
            "title": "7th Semester",
            "suggestions": [
              { "text": "Me En 340", "hours": 3 },
              { "text": "Me En 475 &nbsp;(F)", "hours": 3 },
              { "text": "Technical elective", "hours": 3 },
              { "text": "Technical elective", "hours": 3 },
              { "text": "University Core Civilization 1 elective", "hours": 3 },
              { "text": "Religion elective", "hours": 2 }
            ],
            "hours": 17
          },
          {
            "title": "8th Semester",
            "suggestions": [
              { "text": "Me En 476 &nbsp;(W)", "hours": 3 },
              { "text": "Technical elective", "hours": 3 },
              { "text": "Technical elective", "hours": 3 },
              { "text": "University Core Civilization 2: Arts elective", "hours": 3 },
              { "text": "Religion elective", "hours": 2 }
            ],
            "hours": 14
          }
        ]
      }
    ]
  },
  "postSuggestedSequenceNotes": { "notes": { "markdown": "" } },
  "customSections": [
    {
      "sectionTitle": "THE DISCIPLINE:",
      "details": {
        "markdown": "Mechanical engineers work with concepts, ideas, and products that are primarily mechanical or energy related. &nbsp;Mechanical engineering is a broad discipline that prepares a person to contribute in a wide range of fields such as aerospace, computer graphics, power generation, machine tools, petroleum, agricultural and construction equipment, medicine, government, and all types of transportation. &nbsp;A mechanical engineer may work in research, design, analysis, manufacturing, testing, operations, sales, or management. &nbsp;Engineers use critical problem-solving methods and basic principles of mathematics and science to creatively solve problems."
      }
    },
    {
      "sectionTitle": "EDUCATIONAL OBJECTIVES:",
      "details": {
        "markdown": "The objectives of the undergraduate Bachelors of Science program in the Department of Mechanical Engineering at Brigham Young University are to:\n\n  * Teach the fundamental concepts of math, science, and mechanical engineering in order to produce graduates who demonstrate technical excellence and provide service to their profession, community, family, and church.\n  * Instill a desire and ability to learn continuously, both through study and faith, to enable graduates to meet the changing demands of their profession and personal life.\n  * Provide practical and open-ended engineering experiences in order to develop graduates who think independently and demonstrate leadership and creativity.\n  * Engage students in activities to produce graduates who communicate and work effectively and ethically with people of diverse backgrounds."
      }
    }
  ],
  "secondPageFooter": { "footers": { "markdown": "" } },
  "geRequirements": [
    { "text": "Doctrinal Foundations", "type": "heading" },
    {
      "text": "Tchgs & Doctrine of Book of Mormon",
      "type": "requirement",
      "requirementId": 1,
      "programCode": "000409"
    },
    {
      "text": "Christ and the Everlasting Gospel",
      "type": "requirement",
      "requirementId": 5,
      "programCode": "000409"
    },
    {
      "text": "Foundations of the Restoration",
      "type": "requirement",
      "requirementId": 8,
      "programCode": "000409"
    },
    { "text": "The Eternal Family", "type": "requirement", "requirementId": 10, "programCode": "000409" },
    { "text": "BYU Religion Hours", "type": "requirement", "requirementId": 13, "programCode": "000409" },
    { "text": "The Individual and Society", "type": "heading" },
    { "text": "American Heritage", "type": "requirement", "requirementId": 1, "programCode": "111120" },
    {
      "text": "Global and Cultural Awareness",
      "type": "requirement",
      "requirementId": 29,
      "programCode": "111120"
    },
    { "text": "Skills ", "type": "heading" },
    { "text": "First-Year Writing", "type": "requirement", "requirementId": 155, "programCode": "111120" },
    {
      "text": "Adv Written & Oral Communication",
      "type": "requirement",
      "requirementId": 160,
      "programCode": "111120"
    },
    {
      "text": "Quantitative Reasoning",
      "type": "requirement",
      "requirementId": 213,
      "programCode": "111120"
    },
    {
      "text": "Languages of Learning",
      "type": "requirement",
      "requirementId": 228,
      "programCode": "111120"
    },
    { "text": "Arts, Letters and Sciences", "type": "heading" },
    { "text": "Civilization 1", "type": "requirement", "requirementId": 305, "programCode": "111120" },
    { "text": "Civilization 2", "type": "requirement", "requirementId": 321, "programCode": "111120" },
    { "text": "Arts", "type": "requirement", "requirementId": 337, "programCode": "111120" },
    { "text": "Letters", "type": "requirement", "requirementId": 397, "programCode": "111120" },
    { "text": "Biological Science", "type": "requirement", "requirementId": 480, "programCode": "111120" },
    { "text": "Physical Science", "type": "requirement", "requirementId": 499, "programCode": "111120" },
    { "text": "Social Science", "type": "requirement", "requirementId": 531, "programCode": "111120" }
  ],
  "meta": {
    "lastUpdated": "2016-06-01T20:38:13.863Z",
    "programCode": "394950",
    "programId": "33461",
    "description": "Mechanical Engineering"
  },
  "programRequirements": {
    "programText": [ ],
    "notes": [
      "On gaining acceptance into the professional program, students must maintain a minimum university cumulative grade point average of 2.0.",
      "No more than 6 credit hours of grades below C- in major courses may be applied toward graduation.",
      "A professional program course may not be retaken more than once."
    ],
    "requirements": [
      {
        "headerNotes": ["Mathematics core sequences:"],
        "label": { "heading": "Requirement 1", "completion": "Complete 1 Option" },
        "requirements": [
          {
            "label": { "heading": "Option 1", "completion": "Complete 4 Courses" },
            "courses": [
              {
                "courseTitle": "MATH  112",
                "courseDescription": "Calculus 1",
                "curriculumId": "03615",
                "titleCode": "008",
                "credits": "4.0"
              },
              {
                "courseTitle": "MATH  113",
                "courseDescription": "Calculus 2",
                "curriculumId": "03616",
                "titleCode": "004",
                "credits": "4.0"
              },
              {
                "courseTitle": "MATH  302",
                "courseDescription": "Math for Engr 1",
                "curriculumId": "10575",
                "titleCode": "000",
                "credits": "4.0"
              },
              {
                "courseTitle": "MATH  303",
                "courseDescription": "Math for Engineering 2",
                "curriculumId": "10576",
                "titleCode": "000",
                "credits": "4.0"
              }
            ]
          },
          {
            "label": { "heading": "Option 2", "completion": "Complete 5 Courses" },
            "courses": [
              {
                "courseTitle": "MATH  112",
                "courseDescription": "Calculus 1",
                "curriculumId": "03615",
                "titleCode": "008",
                "credits": "4.0"
              },
              {
                "courseTitle": "MATH  113",
                "courseDescription": "Calculus 2",
                "curriculumId": "03616",
                "titleCode": "004",
                "credits": "4.0"
              },
              {
                "courseTitle": "MATH  313",
                "courseDescription": "Elementary Linear Algebra",
                "curriculumId": "03629",
                "titleCode": "008",
                "credits": "3.0"
              },
              {
                "courseTitle": "MATH  314",
                "courseDescription": "Calculus of Several Variables",
                "curriculumId": "03630",
                "titleCode": "004",
                "credits": "3.0"
              },
              {
                "courseTitle": "MATH  334",
                "courseDescription": "Ordinary Differential Equation",
                "curriculumId": "03661",
                "titleCode": "002",
                "credits": "3.0"
              }
            ]
          }
        ]
      },
      {
        "label": { "heading": "Requirement 2", "completion": "Complete 4 Courses" },
        "courses": [
          {
            "courseTitle": "BIO   100",
            "courseDescription": "Principles of Biology",
            "curriculumId": "00099",
            "titleCode": "018",
            "credits": "3.0"
          },
          {
            "courseTitle": "CHEM  105",
            "courseDescription": "General College Chemistry",
            "curriculumId": "01016",
            "titleCode": "010",
            "credits": "4.0"
          },
          {
            "courseTitle": "PHSCS 121",
            "courseDescription": "Intro to Newtonian Mechanics",
            "curriculumId": "04540",
            "titleCode": "015",
            "credits": "3.0"
          },
          {
            "courseTitle": "PHSCS 123",
            "courseDescription": "Intro to Waves, Optics, Thermo",
            "curriculumId": "04555",
            "titleCode": "007",
            "credits": "3.0"
          }
        ]
      },
      {
        "headerNotes": ["Preprofessional engineering courses:"],
        "label": { "heading": "Requirement 3", "completion": "Complete 5 Courses" },
        "courses": [
          {
            "courseTitle": "CE EN 203",
            "courseDescription": "Engr Mechanics - Materials",
            "curriculumId": "01227",
            "titleCode": "007",
            "credits": "3.0"
          },
          {
            "courseTitle": "CE EN 204",
            "courseDescription": "Engr Mechanics - Dynamics",
            "curriculumId": "01228",
            "titleCode": "005",
            "credits": "3.0"
          },
          {
            "courseTitle": "EC EN 301",
            "courseDescription": "Elements of Electrical Engr",
            "curriculumId": "01690",
            "titleCode": "007",
            "credits": "3.0"
          },
          {
            "courseTitle": "ME EN 101",
            "courseDescription": "Static Systems in Me En",
            "curriculumId": "12538",
            "titleCode": "000",
            "credits": "3.0"
          },
          {
            "courseTitle": "ME EN 191",
            "courseDescription": "New Student Seminar",
            "curriculumId": "07806",
            "titleCode": "005",
            "credits": "0.5"
          }
        ]
      },
      {
        "headerNotes": ["Professional mechanical engineering core:"],
        "label": { "heading": "Requirement 4", "completion": "Complete 14 Courses" },
        "courses": [
          {
            "courseTitle": "ME EN 250",
            "courseDescription": "Materials Science",
            "curriculumId": "00958",
            "titleCode": "003",
            "credits": "3.0"
          },
          {
            "courseTitle": "ME EN 272",
            "courseDescription": "Engineering Graphics",
            "curriculumId": "08875",
            "titleCode": "002",
            "credits": "3.0"
          },
          {
            "courseTitle": "ME EN 273",
            "courseDescription": "Intro to Sci Computing & CAE",
            "curriculumId": "03709",
            "titleCode": "020",
            "credits": "3.0"
          },
          {
            "courseTitle": "ME EN 312",
            "courseDescription": "Fluid Mechanics",
            "curriculumId": "03724",
            "titleCode": "005",
            "credits": "3.0"
          },
          {
            "courseTitle": "ME EN 321",
            "courseDescription": "Thermodynamics",
            "curriculumId": "03716",
            "titleCode": "000",
            "credits": "3.0"
          },
          {
            "courseTitle": "ME EN 330",
            "courseDescription": "Design of Mechatronic Systems",
            "curriculumId": "12539",
            "titleCode": "000",
            "credits": "3.0"
          },
          {
            "courseTitle": "ME EN 335",
            "courseDescription": "Dynamic System Modeling",
            "curriculumId": "03728",
            "titleCode": "005",
            "credits": "3.0"
          },
          {
            "courseTitle": "ME EN 340",
            "courseDescription": "Heat Transfer",
            "curriculumId": "03746",
            "titleCode": "005",
            "credits": "3.0"
          },
          {
            "courseTitle": "ME EN 362",
            "courseDescription": "Engineering Measurements",
            "curriculumId": "12540",
            "titleCode": "000",
            "credits": "2.0"
          },
          {
            "courseTitle": "ME EN 372",
            "courseDescription": "Mechanical Sys Dsgn Fundmntls",
            "curriculumId": "03729",
            "titleCode": "005",
            "credits": "3.0"
          },
          {
            "courseTitle": "ME EN 382",
            "courseDescription": "Manufacturing Processes",
            "curriculumId": "08940",
            "titleCode": "003",
            "credits": "3.0"
          },
          {
            "courseTitle": "ME EN 393",
            "courseDescription": "Professional Skills in Me En",
            "curriculumId": "12541",
            "titleCode": "000",
            "credits": "1.0"
          },
          {
            "courseTitle": "ME EN 475",
            "courseDescription": "Integrated Prodct&Proc Desgn 1",
            "curriculumId": "08877",
            "titleCode": "002",
            "credits": "3.0"
          },
          {
            "courseTitle": "ME EN 476",
            "courseDescription": "Integrated Prod&Proc Dsgn 2",
            "curriculumId": "08878",
            "titleCode": "000",
            "credits": "3.0"
          }
        ]
      },
      {
        "headerNotes": ["Supporting courses:"],
        "label": { "heading": "Requirement 5", "completion": "Complete 3 Courses" },
        "courses": [
          {
            "courseTitle": "ENG T 231",
            "courseDescription": "Foundations Global Leadership",
            "curriculumId": "11613",
            "titleCode": "001",
            "credits": "3.0"
          },
          {
            "courseTitle": "ENGL  316",
            "courseDescription": "Technical Communication",
            "curriculumId": "01857",
            "titleCode": "005",
            "credits": "3.0"
          },
          {
            "courseTitle": "STAT  201",
            "courseDescription": "Stat for Engineers & Scientist",
            "curriculumId": "05620",
            "titleCode": "005",
            "credits": "3.0"
          }
        ]
      },
      {
        "headerNotes": ["Complete the 12-hour requirement with courses from the following:"],
        "footerNotes": [
          "Complete 12 hours (four courses) of technical electives.",
          "The purpose of these courses is to strengthen the engineering education of the student by a) deepening the student's understanding of engineering and/or science fundamentals, b) helping the student learn to apply engineering fundamentals in specific areas of interest, and/or c) helping the student to develop critical skills related to engineering practice.",
          "The technical electives are normally 400-level or higher mechanical engineering courses, but other courses may be used as long as the following requirements are met:",
          "-- At least two courses (6 credit hours) must be in mechanical engineering",
          "-- No courses may be below the 300 level.",
          "-- A maximum of 3 credit hours in Me En 497R or other independent project courses may be applied to meet technical elective requirements.",
          "-- All courses must be of an acceptable level from mechanical engineering, civil engineering, chemical    engineering, mathematics, statistics, physics, chemistry, or be on the approved elective list in the department office. If a student wishes to count a course outside these areas as an elective, approval must be granted before the course is taken. Approval is requested by submitting a one-page petition to the department undergraduate committee that lists all of the proposed electives and demonstrates how the proposed exception meets the purposes described above.",
          "-- No course used to satisfy other major requirements for graduation may be used as an elective."
        ],
        "label": { "heading": "Requirement 6", "completion": "Complete the following" },
        "requirements": [
          {
            "headerNotes": ["A. General Elective Option"],
            "label": { "heading": "Option 1", "completion": "Complete the following" },
            "requirements": [
              {
                "label": { "heading": "Group 1", "completion": "Complete 12.0 credit hours from the following Courses" },
                "departments": [{ "label": "ME EN 400-599", "exception": "ME EN 475, and ME EN 476" }]
              },
              {
                "label": { "heading": "Group 2", "completion": "Complete 6.0 credit hours from the following Courses" },
                "departments": [
                  {
                    "label": "CE EN 300-599, CH EN 300-599, CHEM 300-599, MATH 400-599, PHSCS 300-599, or STAT 300-599"
                  }
                ]
              },
              {
                "label": { "heading": "Group 3", "completion": "Complete 6.0 credit hours from the following Courses" },
                "courses": [
                  {
                    "courseTitle": "BUS M 430",
                    "courseDescription": "Intro International Business",
                    "curriculumId": "00815",
                    "titleCode": "000",
                    "credits": "3.0"
                  },
                  {
                    "courseTitle": "CFM   412",
                    "courseDescription": "Const Scheduling & Cost Contrl",
                    "curriculumId": "07804",
                    "titleCode": "002",
                    "credits": "3.0"
                  },
                  {
                    "courseTitle": "GEOL  440",
                    "courseDescription": "Solid Earth Geophysics",
                    "curriculumId": "02341",
                    "titleCode": "007",
                    "credits": "3.0"
                  },
                  {
                    "courseTitle": "IT    548",
                    "courseDescription": "Mechatronics",
                    "curriculumId": "09362",
                    "titleCode": "003",
                    "credits": "3.0"
                  },
                  {
                    "courseTitle": "MFG   340",
                    "courseDescription": "Quality Systems",
                    "curriculumId": "03576",
                    "titleCode": "007",
                    "credits": "3.0"
                  },
                  {
                    "courseTitle": "MFG   355",
                    "courseDescription": "Plastics Materials &Processing",
                    "curriculumId": "06381",
                    "titleCode": "004",
                    "credits": "3.0"
                  },
                  {
                    "courseTitle": "MFG   431",
                    "courseDescription": "Tool Design",
                    "curriculumId": "03592",
                    "titleCode": "009",
                    "credits": "3.0"
                  },
                  {
                    "courseTitle": "MFG   434",
                    "courseDescription": "Manufacturing Automation",
                    "curriculumId": "09792",
                    "titleCode": "000",
                    "credits": "3.0"
                  },
                  {
                    "courseTitle": "MFG   480",
                    "courseDescription": "Process Planning & Sys Des",
                    "curriculumId": "03591",
                    "titleCode": "013",
                    "credits": "3.0"
                  },
                  {
                    "courseTitle": "MFG   531",
                    "courseDescription": "Adv Computer-Aided Prog",
                    "curriculumId": "07032",
                    "titleCode": "005",
                    "credits": "3.0"
                  },
                  {
                    "courseTitle": "MFG   532",
                    "courseDescription": "Mfg Systems",
                    "curriculumId": "07033",
                    "titleCode": "006",
                    "credits": "3.0"
                  },
                  {
                    "courseTitle": "MFG   555",
                    "courseDescription": "Composite Materials&Processes",
                    "curriculumId": "03593",
                    "titleCode": "005",
                    "credits": "3.0"
                  },
                  {
                    "courseTitle": "MFG   574",
                    "courseDescription": "Advanced Tool Design",
                    "curriculumId": "08950",
                    "titleCode": "002",
                    "credits": "3.0"
                  },
                  {
                    "courseTitle": "MFG   580",
                    "courseDescription": "Manufacturing Simulation",
                    "curriculumId": "03589",
                    "titleCode": "009",
                    "credits": "3.0"
                  },
                  {
                    "courseTitle": "PDBIO 305",
                    "courseDescription": "Human Physiology (with lab)",
                    "curriculumId": "05810",
                    "titleCode": "030",
                    "credits": "4.0"
                  }
                ]
              }
            ]
          },
          {
            "headerNotes": ["B. Manufacturing Option"],
            "footerNotes": [
              "The Society of Manufacturing Engineers has identified four areas of competency for manufacturing engineering as follows:  (1) materials and manufacturing processes; (2) process, assembly, and product engineering; (3) manufacturing competitiveness; and (4) manufacturing systems design.",
              "An option in manufacturing engineering is available.  It may be completed by taking the following 15 hours of technical electives:",
              "When combined with required courses for all mechanical engineering majors related to manufacturing, namely Me En 250, 282, 475/476, and Stat 201, this option provides a strong foundation in manufacturing engineering."
            ],
            "label": { "heading": "Option 2", "completion": "Complete the following" },
            "requirements": [
              {
                "label": { "heading": "Group 1", "completion": "Complete 3.0 credit hours from the following Courses" },
                "courses": [
                  {
                    "courseTitle": "ME EN 585",
                    "courseDescription": "Manufg Competitiveness",
                    "curriculumId": "09964",
                    "titleCode": "000",
                    "credits": "3.0"
                  },
                  {
                    "courseTitle": "MFG   532",
                    "courseDescription": "Mfg Systems",
                    "curriculumId": "07033",
                    "titleCode": "006",
                    "credits": "3.0"
                  }
                ]
              },
              {
                "label": { "heading": "Group 2", "completion": "Complete 3.0 credit hours from the following Courses" },
                "courses": [
                  {
                    "courseTitle": "ME EN 482",
                    "courseDescription": "Manufg Systms Analysis & Dsgn",
                    "curriculumId": "09962",
                    "titleCode": "001",
                    "credits": "3.0"
                  },
                  {
                    "courseTitle": "ME EN 486",
                    "courseDescription": "Automation",
                    "curriculumId": "07181",
                    "titleCode": "006",
                    "credits": "3.0"
                  },
                  {
                    "courseTitle": "ME EN 537",
                    "courseDescription": "Adv Mechanisms, Robotics",
                    "curriculumId": "03745",
                    "titleCode": "003",
                    "credits": "3.0"
                  }
                ]
              },
              {
                "label": { "heading": "Group 3", "completion": "Complete 3.0 credit hours from the following Courses" },
                "courses": [
                  {
                    "courseTitle": "ME EN 452",
                    "courseDescription": "Intermediate Materials",
                    "curriculumId": "09332",
                    "titleCode": "001",
                    "credits": "3.0"
                  },
                  {
                    "courseTitle": "ME EN 456",
                    "courseDescription": "Composite Material Design",
                    "curriculumId": "03751",
                    "titleCode": "003",
                    "credits": "3.0"
                  },
                  {
                    "courseTitle": "ME EN 477",
                    "courseDescription": "Design for Manufctr & Assembly",
                    "curriculumId": "09335",
                    "titleCode": "001",
                    "credits": "3.0"
                  },
                  {
                    "courseTitle": "ME EN 558",
                    "courseDescription": "Metallurgy",
                    "curriculumId": "09333",
                    "titleCode": "000",
                    "credits": "3.0"
                  },
                  {
                    "courseTitle": "ME EN 584",
                    "courseDescription": "Manf Process Mach Design",
                    "curriculumId": "09963",
                    "titleCode": "000",
                    "credits": "3.0"
                  }
                ]
              },
              {
                "label": { "heading": "Group 4", "completion": "Complete 3.0 credit hours from the following Courses" },
                "courses": [
                  {
                    "courseTitle": "ME EN 452",
                    "courseDescription": "Intermediate Materials",
                    "curriculumId": "09332",
                    "titleCode": "001",
                    "credits": "3.0"
                  },
                  {
                    "courseTitle": "ME EN 456",
                    "courseDescription": "Composite Material Design",
                    "curriculumId": "03751",
                    "titleCode": "003",
                    "credits": "3.0"
                  },
                  {
                    "courseTitle": "ME EN 477",
                    "courseDescription": "Design for Manufctr & Assembly",
                    "curriculumId": "09335",
                    "titleCode": "001",
                    "credits": "3.0"
                  },
                  {
                    "courseTitle": "ME EN 482",
                    "courseDescription": "Manufg Systms Analysis & Dsgn",
                    "curriculumId": "09962",
                    "titleCode": "001",
                    "credits": "3.0"
                  },
                  {
                    "courseTitle": "ME EN 486",
                    "courseDescription": "Automation",
                    "curriculumId": "07181",
                    "titleCode": "006",
                    "credits": "3.0"
                  },
                  {
                    "courseTitle": "ME EN 537",
                    "courseDescription": "Adv Mechanisms, Robotics",
                    "curriculumId": "03745",
                    "titleCode": "003",
                    "credits": "3.0"
                  },
                  {
                    "courseTitle": "ME EN 558",
                    "courseDescription": "Metallurgy",
                    "curriculumId": "09333",
                    "titleCode": "000",
                    "credits": "3.0"
                  },
                  {
                    "courseTitle": "ME EN 584",
                    "courseDescription": "Manf Process Mach Design",
                    "curriculumId": "09963",
                    "titleCode": "000",
                    "credits": "3.0"
                  },
                  {
                    "courseTitle": "ME EN 585",
                    "courseDescription": "Manufg Competitiveness",
                    "curriculumId": "09964",
                    "titleCode": "000",
                    "credits": "3.0"
                  },
                  {
                    "courseTitle": "MFG   532",
                    "courseDescription": "Mfg Systems",
                    "curriculumId": "07033",
                    "titleCode": "006",
                    "credits": "3.0"
                  }
                ]
              }
            ]
          }
        ]
      }
    ]
  }
}