{
  "header": {
    "title": "BFA in INDUSTRIAL DESIGN (396536) MAP Sheet",
    "department": "School of Technology",
    "note": "For students entering the degree program during the 2015&mdash;2016 curricular year."
  },
  "headNotes": {
    "notes": {
      "markdown": "_This is a limited enrollment program requiring departmental admissions approval. &nbsp;Please see the School of Technology Advising office in 250 SNLB for information regarding requirements for admission to this major._"
    }
  },
  "requirementsTable": {
    "html": [
      "\n    <tbody>\n      <tr>\n        <td class=\"c7\" colspan=\"4\" rowspan=\"1\">\n          <p class=\"c6\">UNIVERSITY CORE AND GRADUATION REQUIREMENTS</p>\n        </td>\n\n        <td class=\"c7\" colspan=\"2\" rowspan=\"1\">\n          <p class=\"c6\">PROGRAM REQUIREMENTS (73 total hours)</p>\n        </td>\n      </tr>\n\n      <tr>\n        <td class=\"c7\" colspan=\"1\" rowspan=\"1\">\n          <p class=\"c9\">UNIVERSITY CORE REQUIREMENTS</p>\n\n          <p class=\"c9\"></p>\n\n          <p class=\"c9\"></p>\n\n          <p class=\"c9\">Requirements</p>\n\n          <p class=\"c9\"></p>\n\n          <p class=\"c9\"><strong>Religion Cornerstones</strong></p>\n\n          <p class=\"c9\">&nbsp;Teachings and Doctrine, Book of Mormon</p>\n\n          <p class=\"c9\">&nbsp;Jesus Christ &amp; the Everlasting Gospel</p>\n\n          <p class=\"c9\">&nbsp;Foundations of the Restoration</p>\n\n          <p class=\"c9\">&nbsp;The Eternal Family</p>\n\n          <p class=\"c9\"></p>\n\n          <p class=\"c9\"><strong>The Individual and Society</strong></p>\n\n          <p class=\"c9\">Citizenship</p>\n\n          <p class=\"c9\">American Heritage</p>\n\n          <p class=\"c9\">Global &amp; Cultural Awareness</p>\n\n          <p class=\"c9\"></p>\n\n          <p class=\"c9\"><strong>Skills</strong></p>\n\n          <p class=\"c9\">Effective Communication</p>\n\n          <p class=\"c9\">First-Year Writing</p>\n\n          <p class=\"c9\">Adv Written &amp; Oral Communication</p>\n\n          <p class=\"c9\">Quantitative Reasoning</p>\n\n          <p class=\"c9\">Languages of Learning (Math or</p>\n\n          <p class=\"c9\">Language)</p>\n\n          <p class=\"c9\"></p>\n\n          <p class=\"c9\"><strong>Arts, Letters, and Sciences</strong></p>\n\n          <p class=\"c9\">Civilization 1 and 2</p>\n\n          <p class=\"c9\"></p>\n\n          <p class=\"c9\">Arts</p>\n\n          <p class=\"c9\">Letters</p>\n\n          <p class=\"c9\">Scientific Principles &amp; Reasoning</p>\n\n          <p class=\"c9\">Biological Science</p>\n\n          <p class=\"c9\">Physical Science</p>\n\n          <p class=\"c9\">Social Science</p>\n\n          <p class=\"c6\"></p>\n\n          <p class=\"c9\"></p>\n\n          <p class=\"c9\"><strong>Core Enrichment: Electives</strong></p>\n\n          <p class=\"c9\">Religion Electives</p>\n\n          <p class=\"c9\">Open Electives</p>\n\n          <p class=\"c6\"></p>\n\n          <p class=\"c9\"></p>\n\n          <p class=\"c9\"></p>\n\n          <p class=\"c9\">GRADUATION REQUIREMENTS:</p>\n\n          <p class=\"c9\">Minimum residence hours required</p>\n\n          <p class=\"c9\">Minimum hours needed to graduate</p>\n\n          <p class=\"c9\"></p>\n\n          <p class=\"c9\"></p>\n\n          <p class=\"c9\"></p>\n\n          <p class=\"c9\"></p>\n\n          <p class=\"c9\"></p>\n\n          <p class=\"c9\"></p>\n\n          <p class=\"c9\"></p>\n\n          <p class=\"c9\"></p>\n\n          <p class=\"c9\"></p>\n        </td>\n\n        <td class=\"c7\" colspan=\"1\" rowspan=\"1\">\n          <p class=\"c6\"></p>\n\n          <p class=\"c6\"></p>\n\n          <p class=\"c6\"></p>\n\n          <p class=\"c6\">#Classes</p>\n\n          <p class=\"c6\"></p>\n\n          <p class=\"c6\"></p>\n\n          <p class=\"c6\">1</p>\n\n          <p class=\"c6\">1</p>\n\n          <p class=\"c6\">1</p>\n\n          <p class=\"c6\">1</p>\n\n          <p class=\"c6\"></p>\n\n          <p class=\"c6\"></p>\n\n          <p class=\"c6\"></p>\n\n          <p class=\"c6\">1&mdash;2</p>\n\n          <p class=\"c6\">1</p>\n\n          <p class=\"c6\"></p>\n\n          <p class=\"c6\"></p>\n\n          <p class=\"c6\"></p>\n\n          <p class=\"c6\">1</p>\n\n          <p class=\"c6\">1</p>\n\n          <p class=\"c6\">0&mdash;1</p>\n\n          <p class=\"c6\">1&mdash;4</p>\n\n          <p class=\"c6\"></p>\n\n          <p class=\"c6\"></p>\n\n          <p class=\"c6\"></p>\n\n          <p class=\"c6\">2</p>\n\n          <p class=\"c6\"></p>\n\n          <p class=\"c6\">1</p>\n\n          <p class=\"c6\">1</p>\n\n          <p class=\"c6\"></p>\n\n          <p class=\"c6\">1&mdash;2</p>\n\n          <p class=\"c6\">1&mdash;2</p>\n\n          <p class=\"c6\">1</p>\n\n          <p class=\"c6\"></p>\n\n          <p class=\"c6\"></p>\n\n          <p class=\"c6\"></p>\n\n          <p class=\"c6\">3&mdash;4</p>\n\n          <p class=\"c6\">Variable</p>\n        </td>\n\n        <td class=\"c7\" colspan=\"1\" rowspan=\"1\">\n          <p class=\"c11\"></p>\n\n          <p class=\"c11\"></p>\n\n          <p class=\"c11\"></p>\n\n          <p class=\"c11\">&nbsp;&nbsp; Hours</p>\n\n          <p class=\"c11\"></p>\n\n          <p class=\"c11\"></p>\n\n          <p class=\"c11\">2.0</p>\n\n          <p class=\"c11\">2.0</p>\n\n          <p class=\"c11\">2.0</p>\n\n          <p class=\"c11\">2.0</p>\n\n          <p class=\"c11\"></p>\n\n          <p class=\"c11\"></p>\n\n          <p class=\"c11\"></p>\n\n          <p class=\"c11\">3&mdash;6.0</p>\n\n          <p class=\"c11\">3.0</p>\n\n          <p class=\"c11\"></p>\n\n          <p class=\"c11\"></p>\n\n          <p class=\"c11\"></p>\n\n          <p class=\"c11\">3.0</p>\n\n          <p class=\"c11\">3.0</p>\n\n          <p class=\"c11\">0&mdash;3.0</p>\n\n          <p class=\"c11\">3&mdash;20.0</p>\n\n          <p class=\"c11\"></p>\n\n          <p class=\"c11\"></p>\n\n          <p class=\"c11\"></p>\n\n          <p class=\"c11\">6.0</p>\n\n          <p class=\"c11\"></p>\n\n          <p class=\"c11\">3.0</p>\n\n          <p class=\"c11\">3.0</p>\n\n          <p class=\"c11\"></p>\n\n          <p class=\"c11\">3&mdash;5.0</p>\n\n          <p class=\"c11\">3&mdash;7.0</p>\n\n          <p class=\"c11\">3.0</p>\n\n          <p class=\"c11\"></p>\n\n          <p class=\"c11\"></p>\n\n          <p class=\"c11\"></p>\n\n          <p class=\"c11\">6.0</p>\n\n          <p class=\"c11\">Variable</p>\n\n          <p class=\"c11\"></p>\n\n          <p class=\"c11\"></p>\n\n          <p class=\"c11\"></p>\n\n          <p class=\"c11\"></p>\n\n          <p class=\"c11\">30.0</p>\n\n          <p class=\"c11\">120.0</p>\n        </td>\n\n        <td class=\"c7\" colspan=\"1\" rowspan=\"1\">\n          <p class=\"c9\"></p>\n\n          <p class=\"c9\"></p>\n\n          <p class=\"c9\"></p>\n\n          <p class=\"c9\">Classes</p>\n\n          <p class=\"c9\"></p>\n\n          <p class=\"c6\"></p>\n\n          <p class=\"c9\">Rel A 275</p>\n\n          <p class=\"c9\">Rel A 250</p>\n\n          <p class=\"c9\">Rel C 225</p>\n\n          <p class=\"c9\">Rel C 200</p>\n\n          <p class=\"c9\"></p>\n\n          <p class=\"c9\"></p>\n\n          <p class=\"c9\"></p>\n\n          <p class=\"c9\">from approved list</p>\n\n          <p class=\"c9\">EngT 231*</p>\n\n          <p class=\"c9\"></p>\n\n          <p class=\"c9\"></p>\n\n          <p class=\"c9\"></p>\n\n          <p class=\"c9\">from approved list</p>\n\n          <p class=\"c9\">Engl 316 recommended</p>\n\n          <p class=\"c9\">from approved list</p>\n\n          <p class=\"c9\">from approved lists</p>\n\n          <p class=\"c9\"></p>\n\n          <p class=\"c9\"></p>\n\n          <p class=\"c9\"></p>\n\n          <p class=\"c9\">ArtHC 201*/202*, IHum &nbsp;&nbsp;</p>\n\n          <p class=\"c9\">&nbsp;201*/202*, Tech &nbsp;201*/202*</p>\n\n          <p class=\"c9\">InDes 210*</p>\n\n          <p class=\"c9\">from approved list</p>\n\n          <p class=\"c9\"></p>\n\n          <p class=\"c9\">from approved list</p>\n\n          <p class=\"c9\">from approved list</p>\n\n          <p class=\"c9\">EngT 231*</p>\n\n          <p class=\"c9\"></p>\n\n          <p class=\"c9\"></p>\n\n          <p class=\"c9\"></p>\n\n          <p class=\"c9\">from approved list</p>\n\n          <p class=\"c9\">personal choice</p>\n        </td>\n\n        <td class=\"c7\" colspan=\"1\" rowspan=\"1\">\n          <p class=\"c9\"><strong>Submit a portfolio.</strong></p>\n\n          <p class=\"c9\">cr.hrs grade sem</p>\n\n          <p class=\"c9\"><strong>Complete the following preprofessional requirements:</strong> (all 100-level foundation courses must be completed before admission into the sophomore-level courses)</p>\n\n          <p class=\"c9\">Eng T 231* Foundations of Global Leader. 3.0 | |</p>\n\n          <p class=\"c9\">InDes 130 Visual Design Language 1.5 | |</p>\n\n          <p class=\"c9\">InDes 131 Creativity &amp; Design Thinking 1.5 I I</p>\n\n          <p class=\"c9\">InDes 132 Form &amp; Surface Development 1.5 I I</p>\n\n          <p class=\"c9\">InDes 133 Visualization Methods 1.5 l l</p>\n\n          <p class=\"c6\"></p>\n\n          <p class=\"c9\"><strong>Complete the following:</strong></p>\n\n          <p class=\"c9\">InDes 210* Intermd Computer Applications 3.0 | |</p>\n\n          <p class=\"c9\">InDes 214R Tools,Materials,&amp; Processes 2.0 | |</p>\n\n          <p class=\"c9\">InDes 231 Presentation Methods 1 2.0 | |</p>\n\n          <p class=\"c9\">InDes 233 Presentation Methods 2 2.0 | |</p>\n\n          <p class=\"c9\">InDes 340 Graphics Studies 1 3.0 | |</p>\n\n          <p class=\"c9\">InDes 388 Professional Practices 2.0 I I &nbsp;&nbsp;&nbsp;&nbsp;&nbsp;&nbsp;</p>\n\n          <p class=\"c9\">Tech 312 Innovation 1.0 I I &nbsp;&nbsp;&nbsp;&nbsp;&nbsp;&nbsp;</p>\n\n          <p class=\"c9\">TEE 200 Processes Prototyping Wood 3.0 I I &nbsp;&nbsp;&nbsp;&nbsp;&nbsp;&nbsp;</p>\n\n          <p class=\"c9\"></p>\n\n          <p class=\"c9\"><strong>Complete a minimum of 1 hour from one of the following:</strong></p>\n\n          <p class=\"c9\">InDes 399R Professional Internship 9.0V I I</p>\n\n          <p class=\"c9\"></p>\n\n          <p class=\"c9\"><strong>Complete two registrations of each of the following:</strong></p>\n\n          <p class=\"c9\">InDes 230R Second Year Studio 3.0 | |</p>\n\n          <p class=\"c9\">InDes 330R Third Year Studio 3.0 I I</p>\n\n          <p class=\"c9\">InDes 430R Thesis Studio 4.0 I I</p>\n\n          <p class=\"c9\"></p>\n\n          <p class=\"c9\"><strong>Complete 8 hours from the following:</strong></p>\n\n          <p class=\"c9\">InDes 399R Professional Internship 3.0V I I &nbsp;&nbsp;&nbsp;&nbsp;&nbsp;&nbsp;</p>\n\n          <p class=\"c9\">(3 hours required)</p>\n\n          <p class=\"c9\">Mfg 479 Creating &amp; Managing New Vent 3.0 I I &nbsp;&nbsp;&nbsp;&nbsp;&nbsp;</p>\n\n          <p class=\"c9\">TEE 251 Video Prod &amp; Nonlinear Editing 3.0 I I &nbsp;&nbsp;&nbsp;&nbsp;&nbsp;&nbsp;</p>\n\n          <p class=\"c9\">TEE 400 Furniture Design &amp; Adv Wood. 3.0 I I &nbsp;&nbsp;&nbsp;&nbsp;&nbsp;&nbsp;</p>\n\n          <p class=\"c9\"></p>\n\n          <p class=\"c9\"><strong>Note:</strong> Other courses, as approved by the Program, can be used in this requirement.</p>\n        </td>\n\n        <td class=\"c7\" colspan=\"1\" rowspan=\"1\">\n          <p class=\"c9\"><strong>Complete the following art history requirement:</strong></p>\n\n          <p class=\"c9\">InDes 339 History of Products 3.0 | |</p>\n\n          <p class=\"c9\"></p>\n\n          <p class=\"c9\"><strong>Complete 9 hours of art history from the following:</strong></p>\n\n          <p class=\"c9\"><strong>a. &nbsp;Complete one course from the following:</strong></p>\n\n          <p class=\"c9\">ArtHC 201* World Civilization to 1500 3.0 l l</p>\n\n          <p class=\"c9\">IHum 201* Western Humanities 1 3.0 | |</p>\n\n          <p class=\"c9\">Tech 201* History of Creativity 1 3.0 I I</p>\n\n          <p class=\"c9\"></p>\n\n          <p class=\"c9\"><strong>b. &nbsp;Complete one course from the following:</strong></p>\n\n          <p class=\"c9\">ArtHC 202* World Civilization since 1500 3.0 l l</p>\n\n          <p class=\"c9\">IHum 202* Western Humanities 2 3.0 | |</p>\n\n          <p class=\"c9\">Tech 202* History of Creativity 2 3.0 I I</p>\n\n          <p class=\"c9\"></p>\n\n          <p class=\"c9\"><strong>c. &nbsp;Complete one course from the following:</strong></p>\n\n          <p class=\"c9\">ArtHC 350 Modern Art 3.0 l l</p>\n\n          <p class=\"c9\">ArtHC 355 Contemporary Art 3.0 | |</p>\n\n          <p class=\"c9\">ArtHC 365 American Architecture 3.0 I I</p>\n\n          <p class=\"c9\">ArtHC 367 Modern Architecture 3.0 l l</p>\n\n          <p class=\"c9\">SFL 329 Hist of Interior Design &amp; Arch 2 3.0 | |</p>\n\n          <p class=\"c9\"></p>\n\n          <p class=\"c9\"><strong>Complete one of the following:</strong></p>\n\n          <p class=\"c9\">Engl &nbsp;&nbsp;&nbsp;&nbsp;&nbsp;316 Technical Communication 3.0 | |</p>\n\n          <p class=\"c9\">M Com 320 Commun. in Org. Settings 3.0 | |</p>\n\n          <p class=\"c9\"></p>\n\n          <p class=\"c9\"></p>\n\n          <p class=\"c9\"><strong>Complete department packet and exit interview.</strong></p>\n\n          <p class=\"c9\"></p>\n\n          <p class=\"c9\"></p>\n\n          <p class=\"c9\"></p>\n\n          <p class=\"c9\"></p>\n        </td>\n      </tr>\n    </tbody>\n  "
    ]
  },
  "firstPageFooter": {
    "footers": {
      "markdown": "*THESE COURSES FILL BOTH UNIVERSITY CORE AND PROGRAM REQUIREMENTS (12 hours overlap)\n\n    \n\n    BFA in INDUSTRIAL DESIGN (396536)\n\n    2015&mdash;2016"
    }
  },
  "secondPageNotes": { "notes": { "markdown": "" } },
  "suggestedSequence": {
    "title": "Suggested Sequence of Courses",
    "notes": { "markdown": "" },
    "years": [
      {
        "yearTitle": "FRESHMAN YEAR",
        "semesters": [
          {
            "title": "1st Semester",
            "suggestions": [
              { "text": "InDes 130", "hours": 1.5 },
              { "text": "InDes 131", "hours": 1.5 },
              { "text": "InDes 132", "hours": 1.5 },
              { "text": "InDes 133", "hours": 1.5 },
              { "text": "First-Year Writing or A Htg", "hours": 3 },
              { "text": "Math 110 (if needed)", "hours": 3 },
              { "text": "Religion Cornerstone course", "hours": 2 }
            ],
            "hours": 14
          },
          {
            "title": "2nd Semester",
            "suggestions": [
              { "text": "First-year Writing or A Hgt", "hours": 3 },
              { "text": "Eng T 231", "hours": 3 },
              { "text": "Phy S 100", "hours": 3 },
              { "text": "Religion Cornerstone course", "hours": 2 },
              { "text": "Religion elective", "hours": 2 }
            ],
            "hours": 13
          }
        ]
      },
      {
        "yearTitle": "SOPHOMORE YEAR",
        "semesters": [
          {
            "title": "3rd Semester",
            "suggestions": [
              { "text": "TEE 200", "hours": 3 },
              { "text": "InDes 210", "hours": 3 },
              { "text": "InDes 230R", "hours": 3 },
              { "text": "InDes 231 (F)", "hours": 2 },
              { "text": "Religion Cornerstone course", "hours": 2 },
              { "text": "Elective", "hours": 2 }
            ],
            "hours": 15
          },
          {
            "title": "4th Semester",
            "suggestions": [
              { "text": "InDes 214R", "hours": 2 },
              { "text": "InDes 230R", "hours": 3 },
              { "text": "InDes 233 (W)", "hours": 2 },
              { "text": "Bio 100", "hours": 3 },
              { "text": "Elective", "hours": 3 },
              { "text": "Religion Cornerstone course", "hours": 2 }
            ],
            "hours": 15
          }
        ]
      },
      {
        "yearTitle": "JUNIOR YEAR",
        "semesters": [
          {
            "title": "5th Semester",
            "suggestions": [
              { "text": "InDes 330R", "hours": 3 },
              { "text": "InDes 340 (F)", "hours": 3 },
              { "text": "InDes 388", "hours": 2 },
              { "text": "Tech 312", "hours": 1 },
              { "text": "Religion Elective", "hours": 2 },
              { "text": "Civilization 1*", "hours": 3 },
              { "text": "(ArtHC 201 or Tech 201 or IHum 201)" },
              { "text": "Elective", "hours": null }
            ],
            "hours": 16
          },
          {
            "title": "6th Semester",
            "suggestions": [
              { "text": "InDes 330R", "hours": 3 },
              { "text": "InDes 339 (W)", "hours": 3 },
              { "text": "InDes 338", "hours": 0.5 },
              { "text": "Religion elective", "hours": 2 },
              { "text": "Civilization 2* (IHum 202 can also fill Letters)", "hours": 3 },
              { "text": "(ArtHC 202 or Mfg 202 or IHum 202)" },
              { "text": "Engl 316 or MCom 320", "hours": 3 }
            ],
            "hours": 14.5
          },
          { "title": "Spring/Summer term", "suggestions": [{ "text": "InDes 399R", "hours": 3 }], "hours": 3 }
        ]
      },
      {
        "yearTitle": "SENIOR YEAR",
        "semesters": [
          {
            "title": "7th Semester",
            "suggestions": [
              { "text": "InDes 430", "hours": 4 },
              { "text": "Technical Electives", "hours": 8 },
              { "text": "Language of Learning", "hours": 3 }
            ],
            "hours": 15
          },
          {
            "title": "8th Semester",
            "suggestions": [
              { "text": "InDes 430R", "hours": 4 },
              { "text": "SFL 329, ArtHC 350, 355, 365, or 367", "hours": 3 },
              { "text": "University Core Letters elective", "hours": 3 },
              { "text": "General electives", "hours": 6.5 }
            ],
            "hours": 15.5
          }
        ]
      }
    ]
  },
  "postSuggestedSequenceNotes": { "notes": { "markdown": "" } },
  "customSections": [
    {
      "sectionTitle": "THE DISCIPLINE :",
      "details": {
        "markdown": "Industrial design is a blend of art and technology. &nbsp;On the art side, an industrial designer needs to be creative, be able to visualize ideas, appreciate aesthetics and understand human culture, psychology, and sociology. On the technology side, an industrial designer needs to be able to understand product development processes and contributors, understand how things work, and have a working knowledge of manufacturing materials and processes. Combining the two, an industrial designer creates products that make specific and appropriate human connections through aesthetics, satisfying needs, and providing meaning."
      }
    },
    {
      "sectionTitle": "CAREER OPPORTUNITIES :",
      "details": {
        "markdown": "Industrial designers typically work in these areas: electronic products; outdoor, sports, and recreation products; personal and home products; medical, commercial, and industrial equipment; environments and furniture; toys and children&ndash;s products; and user experiences and design research."
      }
    },
    {
      "sectionTitle": "PRE-MAJOR ENROLLMENT :",
      "details": {
        "markdown": "Students applying for the pre-industrial design program must be accepted to Brigham Young University before being considered for the major."
      }
    }
  ],
  "secondPageFooter": { "footers": { "markdown": "**PROFESSIONAL DEGREE PROGRAM ENROLLMENT** :" } },
  "geRequirements": [
    { "text": "Doctrinal Foundations", "type": "heading" },
    {
      "text": "Tchgs & Doctrine of Book of Mormon",
      "type": "requirement",
      "requirementId": 1,
      "programCode": "000409"
    },
    {
      "text": "Christ and the Everlasting Gospel",
      "type": "requirement",
      "requirementId": 5,
      "programCode": "000409"
    },
    {
      "text": "Foundations of the Restoration",
      "type": "requirement",
      "requirementId": 8,
      "programCode": "000409"
    },
    { "text": "The Eternal Family", "type": "requirement", "requirementId": 10, "programCode": "000409" },
    { "text": "BYU Religion Hours", "type": "requirement", "requirementId": 13, "programCode": "000409" },
    { "text": "The Individual and Society", "type": "heading" },
    { "text": "American Heritage", "type": "requirement", "requirementId": 1, "programCode": "111120" },
    {
      "text": "Global and Cultural Awareness",
      "type": "requirement",
      "requirementId": 29,
      "programCode": "111120"
    },
    { "text": "Skills ", "type": "heading" },
    { "text": "First-Year Writing", "type": "requirement", "requirementId": 155, "programCode": "111120" },
    {
      "text": "Adv Written & Oral Communication",
      "type": "requirement",
      "requirementId": 160,
      "programCode": "111120"
    },
    {
      "text": "Quantitative Reasoning",
      "type": "requirement",
      "requirementId": 213,
      "programCode": "111120"
    },
    {
      "text": "Languages of Learning",
      "type": "requirement",
      "requirementId": 228,
      "programCode": "111120"
    },
    { "text": "Arts, Letters and Sciences", "type": "heading" },
    { "text": "Civilization 1", "type": "requirement", "requirementId": 305, "programCode": "111120" },
    { "text": "Civilization 2", "type": "requirement", "requirementId": 321, "programCode": "111120" },
    { "text": "Arts", "type": "requirement", "requirementId": 337, "programCode": "111120" },
    { "text": "Letters", "type": "requirement", "requirementId": 397, "programCode": "111120" },
    { "text": "Biological Science", "type": "requirement", "requirementId": 480, "programCode": "111120" },
    { "text": "Physical Science", "type": "requirement", "requirementId": 499, "programCode": "111120" },
    { "text": "Social Science", "type": "requirement", "requirementId": 531, "programCode": "111120" }
  ],
  "meta": { "lastUpdated": "2016-05-25T20:52:48.086Z" }
}