{
  "header": {
    "title": "BGS in GENERAL STUDIES: American Studies Emphasis (570137) MAP Sheet",
    "department": "Bachelor of General Studies Office",
    "note": "For students entering the degree program during the 2015&mdash;2016 curricular year."
  },
  "headNotes": { "notes": { "markdown": "" } },
  "requirementsTable": {
    "html": [
      "\n    <tbody>\n      <tr>\n        <td class=\"c6\" colspan=\"4\" rowspan=\"1\">\n          <p class=\"c5\">UNIVERSITY CORE AND GRADUATION REQUIREMENTS</p>\n        </td>\n\n        <td class=\"c6\" colspan=\"4\" rowspan=\"1\">\n          <p class=\"c5\">PROGRAM REQUIREMENTS (33 total hours)</p>\n        </td>\n      </tr>\n\n      <tr>\n        <td class=\"c6\" colspan=\"1\" rowspan=\"1\">\n          <p class=\"c8\">UNIVERSITY CORE REQUIREMENTS</p>\n\n          <p class=\"c8\"></p>\n\n          <p class=\"c8\"></p>\n\n          <p class=\"c8\">Requirements</p>\n\n          <p class=\"c8\"></p>\n\n          <p class=\"c8\"><strong>Religion Cornerstones</strong></p>\n\n          <p class=\"c8\">&nbsp;Teachings and Doctrine, Book of Mormon</p>\n\n          <p class=\"c8\">&nbsp;Jesus Christ &amp; the Everlasting Gospel</p>\n\n          <p class=\"c8\">&nbsp;Foundations of the Restoration</p>\n\n          <p class=\"c8\">&nbsp;The Eternal Family</p>\n\n          <p class=\"c8\"></p>\n\n          <p class=\"c8\"><strong>The Individual and Society</strong></p>\n\n          <p class=\"c8\">Citizenship</p>\n\n          <p class=\"c8\">American Heritage</p>\n\n          <p class=\"c8\">Global &amp; Cultural Awareness</p>\n\n          <p class=\"c8\"></p>\n\n          <p class=\"c8\"><strong>Skills</strong></p>\n\n          <p class=\"c8\">Effective Communication</p>\n\n          <p class=\"c8\">First-Year Writing</p>\n\n          <p class=\"c8\">Adv Written &amp; Oral Communication</p>\n\n          <p class=\"c8\">Quantitative Reasoning</p>\n\n          <p class=\"c8\">Languages of Learning (Math or</p>\n\n          <p class=\"c8\">Language)</p>\n\n          <p class=\"c8\"></p>\n\n          <p class=\"c8\"><strong>Arts, Letters, and Sciences</strong></p>\n\n          <p class=\"c8\">Civilization 1 and 2</p>\n\n          <p class=\"c8\">Arts</p>\n\n          <p class=\"c8\">Letters</p>\n\n          <p class=\"c8\">Scientific Principles &amp; Reasoning</p>\n\n          <p class=\"c8\">Biological Science</p>\n\n          <p class=\"c8\">Physical Science</p>\n\n          <p class=\"c8\">Social Science</p>\n\n          <p class=\"c8\"></p>\n\n          <p class=\"c8\"><strong>Core Enrichment: Electives</strong></p>\n\n          <p class=\"c8\">Religion Electives</p>\n\n          <p class=\"c8\">Open Electives</p>\n\n          <p class=\"c8\"></p>\n\n          <p class=\"c8\"></p>\n\n          <p class=\"c8\"></p>\n\n          <p class=\"c8\"></p>\n\n          <p class=\"c8\"></p>\n\n          <p class=\"c8\">GRADUATION REQUIREMENTS:</p>\n\n          <p class=\"c8\">Minimum residence hours required</p>\n\n          <p class=\"c8\">Minimum hours needed to graduate</p>\n        </td>\n\n        <td class=\"c6\" colspan=\"1\" rowspan=\"1\">\n          <p class=\"c5\"></p>\n\n          <p class=\"c5\"></p>\n\n          <p class=\"c5\"></p>\n\n          <p class=\"c5\"># Classes</p>\n\n          <p class=\"c5\"></p>\n\n          <p class=\"c5\"></p>\n\n          <p class=\"c5\">1</p>\n\n          <p class=\"c5\">1</p>\n\n          <p class=\"c5\">1</p>\n\n          <p class=\"c5\">1</p>\n\n          <p class=\"c5\"></p>\n\n          <p class=\"c5\"></p>\n\n          <p class=\"c5\"></p>\n\n          <p class=\"c5\">2</p>\n\n          <p class=\"c5\">1</p>\n\n          <p class=\"c5\"></p>\n\n          <p class=\"c5\"></p>\n\n          <p class=\"c5\"></p>\n\n          <p class=\"c5\">1</p>\n\n          <p class=\"c5\">1</p>\n\n          <p class=\"c5\">0&mdash;1</p>\n\n          <p class=\"c5\">1&mdash;4</p>\n\n          <p class=\"c5\"></p>\n\n          <p class=\"c5\"></p>\n\n          <p class=\"c5\"></p>\n\n          <p class=\"c5\">2</p>\n\n          <p class=\"c5\">1</p>\n\n          <p class=\"c5\">1</p>\n\n          <p class=\"c5\"></p>\n\n          <p class=\"c5\">1&mdash;2</p>\n\n          <p class=\"c5\">1&mdash;2</p>\n\n          <p class=\"c5\">1</p>\n\n          <p class=\"c5\"></p>\n\n          <p class=\"c5\"></p>\n\n          <p class=\"c5\">3&mdash;4</p>\n\n          <p class=\"c5\">Variable</p>\n        </td>\n\n        <td class=\"c6\" colspan=\"1\" rowspan=\"1\">\n          <p class=\"c10\"></p>\n\n          <p class=\"c10\"></p>\n\n          <p class=\"c10\"></p>\n\n          <p class=\"c10\">&nbsp;&nbsp; Hours</p>\n\n          <p class=\"c10\"></p>\n\n          <p class=\"c10\"></p>\n\n          <p class=\"c10\">2.0</p>\n\n          <p class=\"c10\">2.0</p>\n\n          <p class=\"c10\">2.0</p>\n\n          <p class=\"c10\">2.0</p>\n\n          <p class=\"c10\"></p>\n\n          <p class=\"c10\"></p>\n\n          <p class=\"c10\"></p>\n\n          <p class=\"c10\">6.0</p>\n\n          <p class=\"c10\">3.0</p>\n\n          <p class=\"c10\"></p>\n\n          <p class=\"c10\"></p>\n\n          <p class=\"c10\"></p>\n\n          <p class=\"c10\">3.0</p>\n\n          <p class=\"c10\">3.0</p>\n\n          <p class=\"c10\">0&mdash;3.0</p>\n\n          <p class=\"c10\">3&mdash;20.0</p>\n\n          <p class=\"c10\"></p>\n\n          <p class=\"c10\"></p>\n\n          <p class=\"c10\"></p>\n\n          <p class=\"c10\">6.0</p>\n\n          <p class=\"c10\">3.0</p>\n\n          <p class=\"c10\">3.0</p>\n\n          <p class=\"c10\"></p>\n\n          <p class=\"c10\">3&mdash;5.0</p>\n\n          <p class=\"c10\">3&mdash;7.0</p>\n\n          <p class=\"c10\">3.0</p>\n\n          <p class=\"c10\"></p>\n\n          <p class=\"c10\"></p>\n\n          <p class=\"c10\">6.0</p>\n\n          <p class=\"c10\">Variable</p>\n\n          <p class=\"c10\"></p>\n\n          <p class=\"c10\"></p>\n\n          <p class=\"c10\"></p>\n\n          <p class=\"c10\"></p>\n\n          <p class=\"c10\"></p>\n\n          <p class=\"c10\"></p>\n\n          <p class=\"c10\">30.0</p>\n\n          <p class=\"c10\">120.0</p>\n\n          <p class=\"c10\"></p>\n\n          <p class=\"c10\"></p>\n\n          <p class=\"c10\"></p>\n\n          <p class=\"c10\"></p>\n\n          <p class=\"c10\"></p>\n        </td>\n\n        <td class=\"c6\" colspan=\"1\" rowspan=\"1\">\n          <p class=\"c8\"></p>\n\n          <p class=\"c8\"></p>\n\n          <p class=\"c8\"></p>\n\n          <p class=\"c8\">Classes</p>\n\n          <p class=\"c8\"></p>\n\n          <p class=\"c8\"></p>\n\n          <p class=\"c8\">Rel A 275</p>\n\n          <p class=\"c8\">Rel A 250</p>\n\n          <p class=\"c8\">Rel C 225</p>\n\n          <p class=\"c8\">Rel C 200</p>\n\n          <p class=\"c8\"></p>\n\n          <p class=\"c8\"></p>\n\n          <p class=\"c8\"></p>\n\n          <p class=\"c8\">Econ 110* + Hist 220*</p>\n\n          <p class=\"c8\">from approved list</p>\n\n          <p class=\"c8\"></p>\n\n          <p class=\"c8\"></p>\n\n          <p class=\"c8\"></p>\n\n          <p class=\"c8\">from approved list</p>\n\n          <p class=\"c8\">Engl 312 or 315 recom.</p>\n\n          <p class=\"c8\">from approved list</p>\n\n          <p class=\"c8\">from approved lists</p>\n\n          <p class=\"c8\"></p>\n\n          <p class=\"c8\"></p>\n\n          <p class=\"c8\"></p>\n\n          <p class=\"c8\">from approved list</p>\n\n          <p class=\"c8\">from approved list</p>\n\n          <p class=\"c8\">from approved list</p>\n\n          <p class=\"c8\"></p>\n\n          <p class=\"c8\">from approved list</p>\n\n          <p class=\"c8\">from approved list</p>\n\n          <p class=\"c8\">Econ 110*</p>\n\n          <p class=\"c8\"></p>\n\n          <p class=\"c8\"></p>\n\n          <p class=\"c8\">from approved list</p>\n\n          <p class=\"c8\">personal choice</p>\n        </td>\n\n        <td class=\"c6\" colspan=\"1\" rowspan=\"1\">\n          <ul>\n            <li>All emphasis courses taken after admission to BGS must be BYU courses.</li>\n\n            <li>Enroll in and complete a minimum of 10 hours in the emphasis after formal admission to the BGS program.</li>\n\n            <li>Forty of the 120 hours including 15 hours in the emphasis must be 300- or 400-level courses.</li>\n\n            <li>Students must earn a minimum 2.0 BYU grade point average, a minimum 2.0 cumulative grade point average, and a minimum 2.0 emphasis grade point average.</li>\n\n            <li>The program must be completed in eight years or less.</li>\n          </ul>\n\n          <p class=\"c8\"></p>\n\n          <p class=\"c8\"><strong>Complete the following prerequisite course:</strong></p>\n\n          <p class=\"c8\">StDev 100 Essential College Skills</p>\n\n          <p class=\"c8\">(must be completed before taking any other courses, includes preparing academic plan which must be approved before proceeding)</p>\n\n          <p class=\"c8\"></p>\n\n          <p class=\"c8\"><strong>Complete the following core courses:</strong></p>\n\n          <p class=\"c8\">Econ 110* Economic Principles &amp; Problems</p>\n\n          <p class=\"c8\">Hist 220* The United States Through 1877</p>\n\n          <p class=\"c8\">Hist 221 The United States Since 1877</p>\n\n          <p class=\"c8\">Poli 110 American Government &amp; Politics</p>\n        </td>\n\n        <td class=\"c6\" colspan=\"1\" rowspan=\"1\">\n          <p class=\"c8\"></p>\n\n          <p class=\"c8\"></p>\n\n          <p class=\"c8\"></p>\n\n          <p class=\"c8\"></p>\n\n          <p class=\"c8\"></p>\n\n          <p class=\"c8\"></p>\n\n          <p class=\"c8\"></p>\n\n          <p class=\"c8\"></p>\n\n          <p class=\"c8\"></p>\n\n          <p class=\"c8\"></p>\n\n          <p class=\"c8\"></p>\n\n          <p class=\"c8\"></p>\n\n          <p class=\"c8\"></p>\n\n          <p class=\"c8\"></p>\n\n          <p class=\"c8\"></p>\n\n          <p class=\"c8\">1.0</p>\n\n          <p class=\"c8\"></p>\n\n          <p class=\"c8\"></p>\n\n          <p class=\"c8\"></p>\n\n          <p class=\"c8\"></p>\n\n          <p class=\"c8\"></p>\n\n          <p class=\"c8\">3.0</p>\n\n          <p class=\"c8\">3.0</p>\n\n          <p class=\"c8\">3.0</p>\n\n          <p class=\"c8\">3.0</p>\n        </td>\n\n        <td class=\"c6\" colspan=\"1\" rowspan=\"1\">\n          <p class=\"c8\"><strong>Complete 18 hours from the following elective courses:</strong></p>\n\n          <p class=\"c8\">A Htg 100 American Heritage</p>\n\n          <p class=\"c8\">Engl 293 American Literary History</p>\n\n          <p class=\"c8\">Engl 336 The American Novel</p>\n\n          <p class=\"c8\">Engl 361 American Literature 1914-1960</p>\n\n          <p class=\"c8\">Engl 362 American Literature from the Late 19 th to the Early 20 th Century</p>\n\n          <p class=\"c8\">Engl 363 American Literature from the Early to Mid-Twentieth Century</p>\n\n          <p class=\"c8\">Geog 250 United States and Canada</p>\n\n          <p class=\"c8\">Hist 317 The Family &amp; Law in American History</p>\n\n          <p class=\"c8\">Hist 378 American Family History</p>\n\n          <p class=\"c8\">Music 204 Introduction to Jazz</p>\n\n          <p class=\"c8\">Poli 316 American Political Parties</p>\n\n          <p class=\"c8\">Poli 321 The Media in American Politics</p>\n\n          <p class=\"c8\">Rel C 341 J Smith &amp; the Restoration, 1805-1845</p>\n\n          <p class=\"c8\">Rel C 342 Pioneers &amp; Persecution, 1846-1899</p>\n\n          <p class=\"c8\">Rel C 343 The Global Church, 1900 to the Present</p>\n\n          <p class=\"c8\"></p>\n\n          <p class=\"c8\">BYU undergraduate campus courses (including Salt Lake Center classes) from the approved American Studies list may also be used to fill emphasis electives.</p>\n\n          <p class=\"c8\"></p>\n\n          <p class=\"c8\"><strong>Complete the following capstone course:</strong></p>\n\n          <p class=\"c8\">StDev 490 BGS Capstone</p>\n\n          <p class=\"c8\">(last course to be completed)</p>\n        </td>\n\n        <td class=\"c6\" colspan=\"1\" rowspan=\"1\">\n          <p></p>\n\n          <p></p>\n\n          <p>3.0</p>\n\n          <p>3.0</p>\n\n          <p>3.0</p>\n\n          <p>3.0</p>\n\n          <p>3.0</p>\n\n          <p></p>\n\n          <p>3.0</p>\n\n          <p></p>\n\n          <p>3.0</p>\n\n          <p>3.0</p>\n\n          <p>3.0</p>\n\n          <p>3.0</p>\n\n          <p>3.0</p>\n\n          <p>3.0</p>\n\n          <p>2.0</p>\n\n          <p>2.0</p>\n\n          <p>2.0</p>\n\n          <p></p>\n\n          <p></p>\n\n          <p></p>\n\n          <p></p>\n\n          <p></p>\n\n          <p></p>\n\n          <p>2.0</p>\n        </td>\n      </tr>\n    </tbody>\n  "
    ]
  },
  "firstPageFooter": {
    "footers": {
      "markdown": "*THESE CLASSES FILL BOTH UNIVERSITY CORE AND PROGRAM REQUIREMENTS (9 hours overlap)\n\n    BGS in GENERAL STUDIES: American Studies Emphasis (570137)\n\n    2015&mdash;2016"
    }
  },
  "secondPageNotes": { "notes": { "markdown": "" } },
  "suggestedSequence": { "sequence": { "markdown": "" } },
  "postSuggestedSequenceNotes": { "notes": { "markdown": "" } },
  "customSections": [
    {
      "sectionTitle": "THE DEGREE:",
      "details": {
        "markdown": "The Bachelor of General Studies (BGS) degree offers former BYU students who are no longer able to attend BYU an opportunity to complete their bachelor&ndash;s degrees from home. &nbsp;Applicants must have already completed 30 credit hours at the BYU campus in Provo as an admitted day student and must abide by the BYU Code of Honor and receive an annual ecclesiastical endorsement. &nbsp;This program is not available to current BYU students.\n\nThe Bachelor of General Studies degree is designed to help former BYU students utilize as much as possible of their previously earned credit. &nbsp;It uses the same BYU curriculum offered on campus and requires the same general education, religious education, and campus residency as on-campus degrees. &nbsp;However, up to 90 of the required 120 credit hours can be earned through Independent Study. &nbsp;The major is general studies, with an emphasis in one of seven areas of study. &nbsp;The emphasis adds a measure of specialization. &nbsp;Students may earn only one emphasis and do not have the option of creating custom-made areas of study. &nbsp;However, within the number of general electives available, students can utilize credit previously earned in a former major or choose to take courses in a particular concentration."
      }
    },
    { "sectionTitle": "&nbsp;", "details": { "markdown": "" } },
    {
      "sectionTitle": "COURSE AVAILABILITY:",
      "details": {
        "markdown": "Courses listed are generally available through BYU Independent Study, however, due to ongoing course development, some classes may be currently unavailable. If students need a course before it is available, they should work with BGS advisors to select another class."
      }
    },
    {
      "sectionTitle": "ADMISSION REQUIREMENTS :",
      "details": {
        "markdown": "Applicants complete the admissions procedure through the Bachelor of General Studies Office and pay a fee of $35\\. &nbsp;Admission to the BGS program is open to former BYU students who meet all of the following criteria.\n\n  * Have completed a minimum of 30 semester hours of BYU on-campus credit in Provo as an admitted day student (exam credit excluded).\n  * Have not completed any courses as a BYU day-continuing student in the last two years or have completed a minimum of 90 BYU credits (exam credits excluded).\n  * Never completed a bachelor&ndash;s or higher degree.\n  * In good standing (academic, financial, etc.) at all universities attended.\n  * Have a 2.0 or higher BYU and cumulative GPA. &nbsp;(If any academic disciplinary action&ndash;warning, probation, or suspension&ndash;has been taken against you, contact the BGS Office before proceeding with the application process.)\n  * Will abide by the BYU Code of Honor and receive an annual ecclesiastical endorsement.\n  * Have been approved by the BGS admissions committee.\n  * Have successfully completed the Student Development 100 course (1-credit Independent Study course **taken after provisional acceptance into program** ).\n\n**Note: BGS students who discontinue or who have previously discontinued the program for any reason and apply for readmission must meet all admission and graduation requirements in place at the time of reapplication. &nbsp;Regulations, policies, fees, curricula, courses, and other requirements are subject to change at any time.**"
      }
    },
    {
      "sectionTitle": "GRADUATION REQUIREMENTS:",
      "details": {
        "markdown": "The requirements for the university core and for individual emphases are found on the MAP on the reverse side of this sheet. &nbsp;Additional instructions regarding credits necessary for graduation are as follows:"
      }
    },
    {
      "sectionTitle": "RELIGIOUS EDUCATION REQUIREMENTS:",
      "details": {
        "markdown": "Religious education hours are a requirement at BYU, but the actual number of hours varies for students with transfer credit. &nbsp;Contact the BGS Office for details regarding individual circumstances. &nbsp;No more than 18 total hours of religion may be counted toward the BGS degree."
      }
    },
    {
      "sectionTitle": "ELECTIVE REQUIREMENTS:",
      "details": {
        "markdown": "Completing the university core and emphasis requirements _will not_ necessarily provide sufficient credits for students to meet the overall BYU minimum credit hours needed for graduation. &nbsp;Students should be aware of the number of elective hours needed (preferably from the upper division level) in order for them to graduate."
      }
    }
  ],
  "secondPageFooter": { "footers": { "markdown": "" } }
}