{
  "header": {
    "title": "Tourism Studies (733725) MAP Sheet",
    "department": "Department of Geography",
    "note": "For students entering the degree program during the 2015&mdash;2016 curricular year."
  },
  "headNotes": { "notes": { "markdown": "" } },
  "firstPageFooter": {
    "footers": {
      "markdown": "FOR UNIVERSITY CORE AND PROGRAM QUESTIONS CONTACT THE ADVISEMENT CENTER\n\n    *THESE CLASSES CAN FILL BOTH UNIVERSITY CORE AND PROGRAM REQUIREMENTS (9 hours overlap possible)\n\n    BS in GEOGRAPHY: Tourism Studies Emphasis (733725)\n\n    2015&mdash;2016"
    }
  },
  "secondPageNotes": { "notes": { "markdown": "" } },
  "suggestedSequence": {
    "title": "Suggested Sequence of Courses",
    "notes": { "markdown": "" },
    "years": [
      {
        "yearTitle": "FRESHMAN YEAR",
        "semesters": [
          {
            "title": "1st Semester",
            "suggestions": [
              { "text": "Geog 100 (FWSpSu)", "hours": 1 },
              { "text": "Geog 101 (FWSpSu)", "hours": 3 },
              { "text": "1 st Year Writing", "hours": 3 },
              { "text": "Or A Htg 100 (3.0)" },
              { "text": "Religion Cornerstone course", "hours": 2 },
              { "text": "General Education courses," },
              { "text": "and/or general electives", "hours": 6 }
            ],
            "hours": 15
          },
          {
            "title": "2nd Semester",
            "suggestions": [
              { "text": "Geog 120 (FWSpSu)", "hours": 3 },
              { "text": "Geog 211 (FWSp)", "hours": 4 },
              { "text": "A Htg 100", "hours": 3 },
              { "text": "Or 1 st Year Writing (3.0)" },
              { "text": "Religion Cornerstone course", "hours": 2 },
              { "text": "General Education courses," },
              { "text": "and/or general electives", "hours": 4 }
            ],
            "hours": 16
          }
        ]
      },
      {
        "yearTitle": "SOPHOMORE YEAR",
        "semesters": [
          {
            "title": "3rd Semester",
            "suggestions": [
              { "text": "Geog 130", "hours": 3 },
              { "text": "Geog 212", "hours": 3 },
              { "text": "Geog 347", "hours": 3 },
              { "text": "Geog 222", "hours": 3 },
              { "text": "Religion Cornerstone course", "hours": 2 },
              { "text": "General Education courses," },
              { "text": "and/or general electives", "hours": 1 }
            ],
            "hours": 15
          },
          {
            "title": "4th Semester",
            "suggestions": [
              { "text": "Geog 110", "hours": 3 },
              { "text": "Geog 250", "hours": 3 },
              { "text": "Geog 348", "hours": 3 },
              { "text": "Religion elective", "hours": 2 },
              { "text": "General Education courses," },
              { "text": "and/or general electives", "hours": 4 }
            ],
            "hours": 15
          }
        ]
      },
      {
        "yearTitle": "JUNIOR YEAR",
        "semesters": [
          {
            "title": "5th Semester",
            "suggestions": [
              { "text": "Geography regional elective", "hours": 3 },
              { "text": "Tourism elective", "hours": 3 },
              { "text": "Religion Cornerstone course", "hours": 2 },
              { "text": "General Education courses," },
              { "text": "and/or general electives", "hours": 7 }
            ],
            "hours": 15
          },
          {
            "title": "6th Semester",
            "suggestions": [
              { "text": "Geography tourism emphasis elective", "hours": 3 },
              { "text": "Geography regional elective", "hours": 3 },
              { "text": "Religion elective", "hours": 2 },
              { "text": "General Education courses," },
              { "text": "and/or general electives", "hours": 7 }
            ],
            "hours": 15
          }
        ]
      },
      {
        "yearTitle": "SENIOR YEAR",
        "semesters": [
          {
            "title": "7th Semester",
            "suggestions": [
              { "text": "Geography tourism emphasis elective", "hours": 6 },
              { "text": "Religion elective", "hours": 2 },
              { "text": "General Education courses," },
              { "text": "and/or general electives", "hours": 7 }
            ],
            "hours": 15
          },
          {
            "title": "8th Semester",
            "suggestions": [
              { "text": "Geography supporting course", "hours": 3 },
              { "text": "General Education courses," },
              { "text": "and/or general electives", "hours": 12 },
              { "text": "Exit Assessment", "hours": 0 }
            ],
            "hours": 15
          }
        ]
      }
    ]
  },
  "postSuggestedSequenceNotes": {
    "notes": {
      "markdown": "Your academic advisor can assist you in choosing electives to meet your total hour requirement."
    }
  },
  "customSections": [
    {
      "sectionTitle": "DISCIPLINE :",
      "details": {
        "markdown": "Geography offers a variety of programs centered around spatial analysis and tailored, so far as possible, to meet the future needs of individual students. &nbsp;Our modern computer laboratory allows students to gain practical experience with geographical information systems (GIS), remote sensing, cartography, and other programs in urban and regional planning, travel, and population studies."
      }
    },
    {
      "sectionTitle": "RESEARCH OPPORTUNITIES:",
      "details": { "markdown": "Contact the Geography Department for this information." }
    },
    {
      "sectionTitle": "INTERNSHIPS, CO-OP &amp; PRACTICAL ED:",
      "details": { "markdown": "Contact the Geography Department for this information." }
    },
    {
      "sectionTitle": "FINANCING:",
      "details": {
        "markdown": "Many students work up to 20 hours per week. Some find employment in campus offices and some junior and senior students obtain teaching or research assistantships. Most of our students obtain summer jobs that make use of their training and interests."
      }
    },
    {
      "sectionTitle": "CAREERS :",
      "details": {
        "markdown": "Graduates are employed in a wide range of both private and governmental positions. &nbsp;Job titles include geographer, teacher of geography, city or regional planner, cartographer, photo interpreter, commodities and industrial location analysts, intelligence, travel industry, or environmental and GIS specialist, and many others.\n\nSkills in spatial analysis make geography a valuable minor or supporting field for many other disciplines.\n\nFor more information on careers in your major, please contact the University Career Center or the College of Family, Home, and Social Sciences Academic Advisement Center."
      }
    }
  ],
  "secondPageFooter": { "footers": { "markdown": "" } },
  "geRequirements": [
    { "text": "Doctrinal Foundations", "type": "heading" },
    {
      "text": "Tchgs & Doctrine of Book of Mormon",
      "type": "requirement",
      "requirementId": 1,
      "programCode": "000409"
    },
    {
      "text": "Christ and the Everlasting Gospel",
      "type": "requirement",
      "requirementId": 5,
      "programCode": "000409"
    },
    {
      "text": "Foundations of the Restoration",
      "type": "requirement",
      "requirementId": 8,
      "programCode": "000409"
    },
    { "text": "The Eternal Family", "type": "requirement", "requirementId": 10, "programCode": "000409" },
    { "text": "BYU Religion Hours", "type": "requirement", "requirementId": 13, "programCode": "000409" },
    { "text": "The Individual and Society", "type": "heading" },
    { "text": "American Heritage", "type": "requirement", "requirementId": 1, "programCode": "111120" },
    {
      "text": "Global and Cultural Awareness",
      "type": "requirement",
      "requirementId": 29,
      "programCode": "111120"
    },
    { "text": "Skills ", "type": "heading" },
    { "text": "First-Year Writing", "type": "requirement", "requirementId": 155, "programCode": "111120" },
    {
      "text": "Adv Written & Oral Communication",
      "type": "requirement",
      "requirementId": 160,
      "programCode": "111120"
    },
    {
      "text": "Quantitative Reasoning",
      "type": "requirement",
      "requirementId": 213,
      "programCode": "111120"
    },
    {
      "text": "Languages of Learning",
      "type": "requirement",
      "requirementId": 228,
      "programCode": "111120"
    },
    { "text": "Arts, Letters and Sciences", "type": "heading" },
    { "text": "Civilization 1", "type": "requirement", "requirementId": 305, "programCode": "111120" },
    { "text": "Civilization 2", "type": "requirement", "requirementId": 321, "programCode": "111120" },
    { "text": "Arts", "type": "requirement", "requirementId": 337, "programCode": "111120" },
    { "text": "Letters", "type": "requirement", "requirementId": 397, "programCode": "111120" },
    { "text": "Biological Science", "type": "requirement", "requirementId": 480, "programCode": "111120" },
    { "text": "Physical Science", "type": "requirement", "requirementId": 499, "programCode": "111120" },
    { "text": "Social Science", "type": "requirement", "requirementId": 531, "programCode": "111120" }
  ],
  "meta": {
    "lastUpdated": "2016-05-26T14:57:12.930Z",
    "programCode": "733725",
    "programId": "32973",
    "description": "Tourism Studies"
  },
  "programRequirements": {
    "requirements": [
      {
        "headerNotes": ["Geography core courses:"],
        "label": { "heading": "Requirement 1", "completion": "Complete 9 Courses" },
        "courses": [
          {
            "courseTitle": "GEOG  100",
            "courseDescription": "The Geographic Approach",
            "curriculumId": "10025",
            "titleCode": "000",
            "credits": "1.0"
          },
          {
            "courseTitle": "GEOG  101",
            "courseDescription": "Global Environment",
            "curriculumId": "02247",
            "titleCode": "015",
            "credits": "3.0"
          },
          {
            "courseTitle": "GEOG  110",
            "courseDescription": "Landscapes of Disaster",
            "curriculumId": "11202",
            "titleCode": "001",
            "credits": "3.0"
          },
          {
            "courseTitle": "GEOG  120",
            "courseDescription": "Geography & World Affairs",
            "curriculumId": "02249",
            "titleCode": "005",
            "credits": "3.0"
          },
          {
            "courseTitle": "GEOG  130",
            "courseDescription": "Intro to Human Geography",
            "curriculumId": "02257",
            "titleCode": "002",
            "credits": "3.0"
          },
          {
            "courseTitle": "GEOG  211",
            "courseDescription": "Map Use & Interpretation",
            "curriculumId": "02251",
            "titleCode": "005",
            "credits": "4.0"
          },
          {
            "courseTitle": "GEOG  212",
            "courseDescription": "Intro to GIS",
            "curriculumId": "08836",
            "titleCode": "002",
            "credits": "3.0"
          },
          {
            "courseTitle": "GEOG  222",
            "courseDescription": "Statistics for Geographers 1",
            "curriculumId": "02256",
            "titleCode": "011",
            "credits": "3.0"
          },
          {
            "courseTitle": "GEOG  250",
            "courseDescription": "US and Canada",
            "curriculumId": "02267",
            "titleCode": "002",
            "credits": "3.0"
          }
        ]
      },
      {
        "headerNotes": ["Regional courses:"],
        "label": { "heading": "Requirement 2", "completion": "Complete 1 Course" },
        "courses": [
          {
            "courseTitle": "GEOG  245",
            "courseDescription": "Geography of Utah",
            "curriculumId": "11203",
            "titleCode": "000",
            "credits": "3.0"
          },
          {
            "courseTitle": "GEOG  255",
            "courseDescription": "Middle & South America",
            "curriculumId": "02270",
            "titleCode": "008",
            "credits": "3.0"
          },
          {
            "courseTitle": "GEOG  260",
            "courseDescription": "Europe",
            "curriculumId": "02271",
            "titleCode": "008",
            "credits": "3.0"
          },
          {
            "courseTitle": "GEOG  265",
            "courseDescription": "Russia & Former Soviet Union",
            "curriculumId": "02272",
            "titleCode": "007",
            "credits": "3.0"
          },
          {
            "courseTitle": "GEOG  271",
            "courseDescription": "Middle East",
            "curriculumId": "06994",
            "titleCode": "003",
            "credits": "3.0"
          },
          {
            "courseTitle": "GEOG  272",
            "courseDescription": "East Asia",
            "curriculumId": "02273",
            "titleCode": "006",
            "credits": "3.0"
          },
          {
            "courseTitle": "GEOG  273",
            "courseDescription": "Southeast Asia",
            "curriculumId": "10797",
            "titleCode": "000",
            "credits": "3.0"
          },
          {
            "courseTitle": "GEOG  285",
            "courseDescription": "Africa South of the Sahara",
            "curriculumId": "02274",
            "titleCode": "008",
            "credits": "3.0"
          }
        ]
      },
      {
        "headerNotes": ["Major courses:"],
        "label": { "heading": "Requirement 3", "completion": "Complete 2 Courses" },
        "courses": [
          {
            "courseTitle": "GEOG  347",
            "courseDescription": "Tourism:Conc Frame",
            "curriculumId": "02262",
            "titleCode": "019",
            "credits": "3.0"
          },
          {
            "courseTitle": "GEOG  348",
            "courseDescription": "Tourism:Patterns & Analysis",
            "curriculumId": "02254",
            "titleCode": "003",
            "credits": "3.0"
          }
        ]
      },
      {
        "headerNotes": ["Advanced tourism courses (Note:  if Geog 399R is chosen, 3 credit hours are required):"],
        "label": { "heading": "Requirement 4", "completion": "Complete 4 Courses" },
        "courses": [
          {
            "courseTitle": "BUS M 241",
            "courseDescription": "Marketing Management",
            "curriculumId": "00803",
            "titleCode": "005",
            "credits": "3.0"
          },
          {
            "courseTitle": "GEOG  322",
            "courseDescription": "Statistics for Geographers 2",
            "curriculumId": "11632",
            "titleCode": "001",
            "credits": "3.0"
          },
          {
            "courseTitle": "GEOG  349",
            "courseDescription": "Global Adventure Travel",
            "curriculumId": "11373",
            "titleCode": "000",
            "credits": "3.0"
          },
          {
            "courseTitle": "GEOG  350",
            "courseDescription": "Tourism Planning",
            "curriculumId": "11633",
            "titleCode": "000",
            "credits": "3.0"
          },
          {
            "courseTitle": "GEOG  353",
            "courseDescription": "Heritage & Cultural Tourism",
            "curriculumId": "11634",
            "titleCode": "000",
            "credits": "3.0"
          },
          {
            "courseTitle": "GEOG  399R",
            "courseDescription": "Academic Internship",
            "curriculumId": "02263",
            "titleCode": "002",
            "credits": "6.0v",
            "rCourseLabel": "You may take up to 3.0 credit hours"
          },
          {
            "courseTitle": "HIST  369",
            "courseDescription": "Travel & Tourism in America",
            "curriculumId": "11348",
            "titleCode": "000",
            "credits": "3.0"
          },
          {
            "courseTitle": "RECM  300",
            "courseDescription": "Creating a Good Life",
            "curriculumId": "12235",
            "titleCode": "000",
            "credits": "3.0"
          },
          {
            "courseTitle": "RECM  330",
            "courseDescription": "Hospitality Management",
            "curriculumId": "12236",
            "titleCode": "000",
            "credits": "3.0"
          }
        ]
      },
      {
        "label": { "heading": "Requirement 5", "completion": "Complete the following" },
        "footerNotes": [
          "Complete the exit assessment during the final semester, no later than one month before graduation. "
        ]
      }
    ]
  }
}