{
  "header": {
    "title": "Geographic Information Systems (733726) MAP Sheet",
    "department": "Department of Geography",
    "note": "For students entering the degree program during the 2015&mdash;2016 curricular year."
  },
  "headNotes": { "notes": { "markdown": "" } },
  "firstPageFooter": {
    "footers": {
      "markdown": "FOR UNIVERSITY CORE AND PROGRAM QUESTIONS CONTACT THE ADVISEMENT CENTER\n\n    *THESE CLASSES FILL BOTH UNIVERSITY CORE AND PROGRAM REQUIREMENTS (9 hours overlap)\n\n    BS in GEOGRAPHY: Geographic Information Systems Emphasis (733726)\n\n    2015&mdash;2016"
    }
  },
  "secondPageNotes": { "notes": { "markdown": "" } },
  "suggestedSequence": {
    "title": "Suggested Sequence of Courses",
    "notes": { "markdown": "" },
    "years": [
      {
        "yearTitle": "FRESHMAN YEAR",
        "semesters": [
          {
            "title": "1st Semester",
            "suggestions": [
              { "text": "Geog 100 (FWSp)", "hours": 1 },
              { "text": "Geog 101 (FWSpSu)", "hours": 3 },
              { "text": "1 st Year Writing", "hours": 3 },
              { "text": "Or A Htg 100 (3.0)" },
              { "text": "Religion Cornerstone course", "hours": 2 },
              { "text": "General Education courses," },
              { "text": "and/or general electives", "hours": 6 }
            ],
            "hours": 15
          },
          {
            "title": "2nd Semester",
            "suggestions": [
              { "text": "Geog 120 (FWSpSu)", "hours": 3 },
              { "text": "Geog 211 (FWSp)", "hours": 4 },
              { "text": "1 st Year Writing", "hours": 3 },
              { "text": "Or A Htg 100 (3.0)" },
              { "text": "Religion Cornerstone course", "hours": 2 },
              { "text": "General Education courses," },
              { "text": "and/or general electives", "hours": 4 }
            ],
            "hours": 16
          }
        ]
      },
      {
        "yearTitle": "SOPHOMORE YEAR",
        "semesters": [
          {
            "title": "3rd Semester",
            "suggestions": [
              { "text": "Geog 130 (FW)", "hours": 3 },
              { "text": "Geog 212 (FW)", "hours": 3 },
              { "text": "Geog 217", "hours": 3 },
              { "text": "Geog 222", "hours": 3 },
              { "text": "Religion Cornerstone course", "hours": 2 }
            ],
            "hours": 14
          },
          {
            "title": "4th Semester",
            "suggestions": [
              { "text": "Geog 213", "hours": 2 },
              { "text": "Geog 322", "hours": 3 },
              { "text": "Geography regional elective", "hours": 3 },
              { "text": "Religion elective", "hours": 2 },
              { "text": "Geog 110", "hours": 3 },
              { "text": "General Education courses," },
              { "text": "and/or general electives", "hours": 2 }
            ],
            "hours": 15
          }
        ]
      },
      {
        "yearTitle": "JUNIOR YEAR",
        "semesters": [
          {
            "title": "5th Semester",
            "suggestions": [
              { "text": "Geog 312 (F)", "hours": 4 },
              { "text": "Geog 313", "hours": 3 },
              { "text": "Geography physical or human elective", "hours": 3 },
              { "text": "Religion Cornerstone course", "hours": 2 },
              { "text": "General Education courses," },
              { "text": "and/or general electives", "hours": 3 }
            ],
            "hours": 15
          },
          {
            "title": "6th Semester",
            "suggestions": [
              { "text": "Geog 311", "hours": 3 },
              { "text": "Geog 317", "hours": 3 },
              { "text": "CHum 220 or C S 142 (see advisor)", "hours": 3 },
              { "text": "Religion elective", "hours": 2 },
              { "text": "General Education courses," },
              { "text": "and/or general electives", "hours": 4 }
            ],
            "hours": 15
          }
        ]
      },
      {
        "yearTitle": "SENIOR YEAR",
        "semesters": [
          {
            "title": "7th Semester",
            "suggestions": [
              { "text": "Geography GIS elective", "hours": 3 },
              { "text": "Geography physical or human elective", "hours": 3 },
              { "text": "Religion elective", "hours": 2 },
              { "text": "Geog 307", "hours": 3 },
              { "text": "General Education courses," },
              { "text": "and/or general electives", "hours": 4 }
            ],
            "hours": 15
          },
          {
            "title": "8th Semester",
            "suggestions": [
              { "text": "Geography Capstone", "hours": 3 },
              { "text": "Geography GIS elective 2&mdash;", "hours": 3 },
              { "text": "General Education courses," },
              { "text": "and/or general electives 9&mdash;", "hours": 10 },
              { "text": "Exit Assessment", "hours": 0 }
            ],
            "hours": 15
          }
        ]
      }
    ]
  },
  "postSuggestedSequenceNotes": { "notes": { "markdown": "" } },
  "customSections": [
    {
      "sectionTitle": "THE DISCIPLINE:",
      "details": {
        "markdown": "Geography offers a variety of programs centered around spatial analysis and tailored, so far as possible, to meet the future needs of individual students. &nbsp;Our modern computer laboratory allows students to gain practical experience with geographical information systems (GIS), remote sensing, cartography, and other programs in urban and regional planning, travel, and population studies."
      }
    },
    {
      "sectionTitle": "RESEARCH OPPORTUNITIES:",
      "details": { "markdown": "Contact the Geography Department for this information." }
    },
    {
      "sectionTitle": "INTERNSHIPS, CO-OP &amp; PRACTICAL ED:",
      "details": { "markdown": "Contact the Geography Department for this information." }
    },
    {
      "sectionTitle": "FINANCING:",
      "details": {
        "markdown": "Many students work up to 20 hours per week. Some find employment in campus offices and some junior and senior students obtain teaching or research assistantships. Most of our students obtain summer jobs that make use of their training and interests."
      }
    }
  ],
  "secondPageFooter": { "footers": { "markdown": "**CAREERS:**" } },
  "geRequirements": [
    { "text": "Doctrinal Foundations", "type": "heading" },
    {
      "text": "Tchgs & Doctrine of Book of Mormon",
      "type": "requirement",
      "requirementId": 1,
      "programCode": "000409"
    },
    {
      "text": "Christ and the Everlasting Gospel",
      "type": "requirement",
      "requirementId": 5,
      "programCode": "000409"
    },
    {
      "text": "Foundations of the Restoration",
      "type": "requirement",
      "requirementId": 8,
      "programCode": "000409"
    },
    { "text": "The Eternal Family", "type": "requirement", "requirementId": 10, "programCode": "000409" },
    { "text": "BYU Religion Hours", "type": "requirement", "requirementId": 13, "programCode": "000409" },
    { "text": "The Individual and Society", "type": "heading" },
    { "text": "American Heritage", "type": "requirement", "requirementId": 1, "programCode": "111120" },
    {
      "text": "Global and Cultural Awareness",
      "type": "requirement",
      "requirementId": 29,
      "programCode": "111120"
    },
    { "text": "Skills ", "type": "heading" },
    { "text": "First-Year Writing", "type": "requirement", "requirementId": 155, "programCode": "111120" },
    {
      "text": "Adv Written & Oral Communication",
      "type": "requirement",
      "requirementId": 160,
      "programCode": "111120"
    },
    {
      "text": "Quantitative Reasoning",
      "type": "requirement",
      "requirementId": 213,
      "programCode": "111120"
    },
    {
      "text": "Languages of Learning",
      "type": "requirement",
      "requirementId": 228,
      "programCode": "111120"
    },
    { "text": "Arts, Letters and Sciences", "type": "heading" },
    { "text": "Civilization 1", "type": "requirement", "requirementId": 305, "programCode": "111120" },
    { "text": "Civilization 2", "type": "requirement", "requirementId": 321, "programCode": "111120" },
    { "text": "Arts", "type": "requirement", "requirementId": 337, "programCode": "111120" },
    { "text": "Letters", "type": "requirement", "requirementId": 397, "programCode": "111120" },
    { "text": "Biological Science", "type": "requirement", "requirementId": 480, "programCode": "111120" },
    { "text": "Physical Science", "type": "requirement", "requirementId": 499, "programCode": "111120" },
    { "text": "Social Science", "type": "requirement", "requirementId": 531, "programCode": "111120" }
  ],
  "meta": { "lastUpdated": "2016-05-25T17:48:52.489Z", "programCode": "733726", "programId": "32459" },
  "programRequirements": {
    "requirements": [
      {
        "headerNotes": ["Core courses:"],
        "label": { "heading": "Requirement 1", "completion": "Complete 9 Courses" },
        "courses": [
          {
            "courseTitle": "GEOG  100",
            "courseDescription": "The Geographic Approach",
            "curriculumId": "10025",
            "titleCode": "000",
            "credits": "1.0"
          },
          {
            "courseTitle": "GEOG  101",
            "courseDescription": "Global Environment",
            "curriculumId": "02247",
            "titleCode": "015",
            "credits": "3.0"
          },
          {
            "courseTitle": "GEOG  110",
            "courseDescription": "Landscapes of Disaster",
            "curriculumId": "11202",
            "titleCode": "001",
            "credits": "3.0"
          },
          {
            "courseTitle": "GEOG  120",
            "courseDescription": "Geography & World Affairs",
            "curriculumId": "02249",
            "titleCode": "005",
            "credits": "3.0"
          },
          {
            "courseTitle": "GEOG  130",
            "courseDescription": "Intro to Human Geography",
            "curriculumId": "02257",
            "titleCode": "002",
            "credits": "3.0"
          },
          {
            "courseTitle": "GEOG  211",
            "courseDescription": "Map Use & Interpretation",
            "curriculumId": "02251",
            "titleCode": "005",
            "credits": "4.0"
          },
          {
            "courseTitle": "GEOG  212",
            "courseDescription": "Intro to GIS",
            "curriculumId": "08836",
            "titleCode": "002",
            "credits": "3.0"
          },
          {
            "courseTitle": "GEOG  222",
            "courseDescription": "Statistics for Geographers 1",
            "curriculumId": "02256",
            "titleCode": "011",
            "credits": "3.0"
          },
          {
            "courseTitle": "GEOG  322",
            "courseDescription": "Statistics for Geographers 2",
            "curriculumId": "11632",
            "titleCode": "001",
            "credits": "3.0"
          }
        ]
      },
      {
        "headerNotes": ["Physical, regional, or human geography courses:"],
        "label": { "heading": "Requirement 2", "completion": "Complete 2 Courses" },
        "courses": [
          {
            "courseTitle": "GEOG  305",
            "courseDescription": "Geography of Landforms",
            "curriculumId": "02265",
            "titleCode": "002",
            "credits": "3.0"
          },
          {
            "courseTitle": "GEOG  306",
            "courseDescription": "Pub Land Conserv",
            "curriculumId": "10026",
            "titleCode": "001",
            "credits": "3.0"
          },
          {
            "courseTitle": "GEOG  307",
            "courseDescription": "Landscape Ecology",
            "curriculumId": "09710",
            "titleCode": "002",
            "credits": "3.0"
          },
          {
            "courseTitle": "GEOG  310",
            "courseDescription": "Intro to City Planning",
            "curriculumId": "02259",
            "titleCode": "001",
            "credits": "3.0"
          },
          {
            "courseTitle": "GEOG  331",
            "courseDescription": "Economic Geography",
            "curriculumId": "02253",
            "titleCode": "009",
            "credits": "3.0"
          },
          {
            "courseTitle": "GEOG  336",
            "courseDescription": "Geog Urban Environ",
            "curriculumId": "02258",
            "titleCode": "004",
            "credits": "3.0"
          },
          {
            "courseTitle": "GEOG  346",
            "courseDescription": "Population Geography",
            "curriculumId": "02277",
            "titleCode": "004",
            "credits": "3.0"
          },
          {
            "courseTitle": "GEOG  410",
            "courseDescription": "Urban Planning Methods",
            "curriculumId": "08990",
            "titleCode": "002",
            "credits": "3.0"
          },
          {
            "courseTitle": "GEOG  421",
            "courseDescription": "Urban Planning Law",
            "curriculumId": "10802",
            "titleCode": "002",
            "credits": "3.0v"
          },
          {
            "courseTitle": "GEOG  422",
            "courseDescription": "Urban Design",
            "curriculumId": "10803",
            "titleCode": "000",
            "credits": "2.0"
          },
          {
            "courseTitle": "GEOG  423",
            "courseDescription": "Planning for Unique Lands",
            "curriculumId": "10804",
            "titleCode": "000",
            "credits": "2.0"
          },
          {
            "courseTitle": "GEOG  424",
            "courseDescription": "Urban Transportation Planning",
            "curriculumId": "11998",
            "titleCode": "000",
            "credits": "3.0"
          },
          {
            "courseTitle": "GEOG  510",
            "courseDescription": "Professional Planning Studio",
            "curriculumId": "02306",
            "titleCode": "012",
            "credits": "3.0"
          }
        ]
      },
      {
        "headerNotes": ["Major courses:"],
        "label": { "heading": "Requirement 3", "completion": "Complete 6 Courses" },
        "courses": [
          {
            "courseTitle": "GEOG  213",
            "courseDescription": "Earth & Image Interpretation",
            "curriculumId": "10341",
            "titleCode": "000",
            "credits": "2.0"
          },
          {
            "courseTitle": "GEOG  217",
            "courseDescription": "Programming for Geographers",
            "curriculumId": "02291",
            "titleCode": "004",
            "credits": "3.0"
          },
          {
            "courseTitle": "GEOG  311",
            "courseDescription": "Intermediate GIS",
            "curriculumId": "10798",
            "titleCode": "001",
            "credits": "3.0"
          },
          {
            "courseTitle": "GEOG  312",
            "courseDescription": "Cartographic Desgn",
            "curriculumId": "02250",
            "titleCode": "006",
            "credits": "4.0"
          },
          {
            "courseTitle": "GEOG  313",
            "courseDescription": "Remote Sensing 1",
            "curriculumId": "02255",
            "titleCode": "002",
            "credits": "3.0"
          },
          {
            "courseTitle": "GEOG  317",
            "courseDescription": "Analytical Cartography",
            "curriculumId": "10799",
            "titleCode": "001",
            "credits": "3.0"
          }
        ]
      },
      {
        "headerNotes": ["Complete two courses (6 credit hours) from the following:"],
        "label": { "heading": "Requirement 4", "completion": "Complete 2 Courses" },
        "courses": [
          {
            "courseTitle": "GEOG  399R",
            "courseDescription": "Academic Internship",
            "curriculumId": "02263",
            "titleCode": "002",
            "credits": "6.0v",
            "rCourseLabel": "You may take up to 3.0 credit hours"
          },
          {
            "courseTitle": "GEOG  411",
            "courseDescription": "Issues in Computer Cartography",
            "curriculumId": "02283",
            "titleCode": "005",
            "credits": "3.0"
          },
          {
            "courseTitle": "GEOG  412",
            "courseDescription": "Advanced GIS",
            "curriculumId": "07847",
            "titleCode": "004",
            "credits": "3.0"
          },
          {
            "courseTitle": "GEOG  413",
            "courseDescription": "Remote Sensing 2",
            "curriculumId": "02313",
            "titleCode": "006",
            "credits": "3.0"
          },
          {
            "courseTitle": "GEOG  414",
            "courseDescription": "Urban Environmental Modeling",
            "curriculumId": "10800",
            "titleCode": "000",
            "credits": "3.0"
          },
          {
            "courseTitle": "GEOG  495R",
            "courseDescription": "Mentored Research",
            "curriculumId": "11204",
            "titleCode": "000",
            "credits": "3.0v",
            "rCourseLabel": "You may take up to 3.0 credit hours"
          },
          {
            "courseTitle": "GEOG  521R",
            "courseDescription": "GIS Practicum",
            "curriculumId": "10805",
            "titleCode": "000",
            "credits": "3.0",
            "rCourseLabel": "You may take this course up to 1 time"
          }
        ]
      },
      {
        "label": { "heading": "Requirement 5", "completion": "Complete the following" },
        "footerNotes": [
          "Complete the exit assessment during the final semester, no later than one month before graduation. "
        ]
      }
    ]
  }
}